<?xml version="1.0" standalone="no"?>
<!DOCTYPE svg PUBLIC "-//W3C//DTD SVG 1.1//EN" "http://www.w3.org/Graphics/SVG/1.1/DTD/svg11.dtd" >
<svg xmlns="http://www.w3.org/2000/svg">
<metadata></metadata>
<defs>
<font id="proxima_nova_ltsemibold" horiz-adv-x="1163" >
<font-face units-per-em="2048" ascent="1618" descent="-430" />
<missing-glyph horiz-adv-x="526" />
<glyph horiz-adv-x="0" />
<glyph horiz-adv-x="0" />
<glyph horiz-adv-x="682" />
<glyph unicode="&#xd;" horiz-adv-x="0" />
<glyph unicode=" "  horiz-adv-x="526" />
<glyph unicode="&#x09;" horiz-adv-x="526" />
<glyph unicode="&#xa0;" horiz-adv-x="526" />
<glyph unicode="!" horiz-adv-x="501" d="M109 121q0 59 41.5 101t99.5 42t100.5 -42t42.5 -101q0 -57 -42.5 -99t-100.5 -42t-99.5 42t-41.5 99zM119 1366h262l-37 -948h-186z" />
<glyph unicode="&#x22;" horiz-adv-x="776" d="M98 1266q0 50 35 85t86 35q50 0 85.5 -35.5t35.5 -84.5q0 -16 -18 -132t-36 -224l-18 -109h-98q-72 430 -72 465zM438 1266q0 50 35 85t86 35q49 0 84 -35t35 -85q0 -16 -18 -132t-36 -224l-18 -109h-96q-72 430 -72 465z" />
<glyph unicode="#" horiz-adv-x="1241" d="M39 356l45 142h209l121 368h-209l43 140h215l119 360h163l-118 -360h207l118 360h164l-121 -360h207l-41 -140h-213l-123 -368h215l-43 -142h-219l-119 -356h-163l120 356h-208l-119 -356h-164l119 356h-205zM457 498h205l122 368h-206z" />
<glyph unicode="$" horiz-adv-x="1239" d="M72 193l133 184q140 -151 344 -182v395q-52 13 -91 24.5t-87 30.5t-82 39.5t-69 50.5t-56.5 65.5t-35 83t-13.5 103.5q0 158 119 268t315 127v191h164v-193q248 -27 411 -184l-137 -178q-114 111 -274 143v-352q63 -17 108 -32t100.5 -39t93.5 -54t72 -70.5t51 -95.5 t17 -121q0 -80 -26.5 -150t-79 -126.5t-138.5 -93.5t-198 -47v-185h-164v185q-305 23 -477 213zM360 1004q0 -56 49 -91t140 -61v319q-87 -9 -138 -54t-51 -113zM713 193q99 16 148.5 67t49.5 115t-51 103t-147 69v-354z" />
<glyph unicode="%" horiz-adv-x="1527" d="M57 1044q0 147 94 244.5t244 97.5q152 0 247 -97.5t95 -244.5q0 -144 -95 -239.5t-247 -95.5q-150 0 -244 95t-94 240zM215 1044q0 -87 51 -143.5t129 -56.5q80 0 131.5 56t51.5 144q0 92 -51.5 148.5t-131.5 56.5q-79 0 -129.5 -57t-50.5 -148zM264 0l873 1366h137 l-875 -1366h-135zM793 311q0 147 93.5 244.5t243.5 97.5t245 -97.5t95 -244.5q0 -144 -95 -240t-245 -96t-243.5 95.5t-93.5 240.5zM950 311q0 -89 50 -144.5t130 -55.5t131.5 55.5t51.5 144.5q0 92 -51.5 148.5t-131.5 56.5t-130 -56.5t-50 -148.5z" />
<glyph unicode="&#x26;" horiz-adv-x="1318" d="M59 365q0 61 16.5 114t42.5 93t66.5 76.5t80 62.5t91.5 53q-96 172 -96 299q0 138 106 230.5t265 92.5q145 0 241.5 -75.5t96.5 -204.5q0 -43 -10.5 -82t-26.5 -69t-44.5 -59.5t-54 -50t-65 -44t-68 -38t-73.5 -36.5q66 -88 135 -168q83 -101 135 -158q89 139 135 285 l176 -80q-96 -213 -190 -338q113 -121 266 -268h-280q-45 39 -121 119q-171 -144 -383 -144q-192 0 -316.5 101.5t-124.5 288.5zM289 383q0 -108 69.5 -172t167.5 -64q120 0 236 97q-128 139 -168 188q-90 108 -152 197q-153 -100 -153 -246zM477 1059q0 -88 68 -207 q54 26 91.5 48.5t72 52t52 65.5t17.5 78q0 61 -38.5 96t-98.5 35q-70 0 -117 -47.5t-47 -120.5z" />
<glyph unicode="'" horiz-adv-x="438" d="M98 1266q0 50 35 85t86 35q50 0 85.5 -35.5t35.5 -84.5q0 -16 -18 -132t-36 -224l-18 -109h-98q-72 430 -72 465z" />
<glyph unicode="(" horiz-adv-x="565" d="M86 498q0 247 82 486.5t227 418.5l133 -100q-107 -201 -158 -387.5t-51 -417.5t51 -417t158 -386l-133 -103q-145 177 -227 418t-82 488z" />
<glyph unicode=")" horiz-adv-x="565" d="M35 -305q108 199 159.5 385t51.5 418t-51.5 418t-159.5 387l133 100q146 -179 228.5 -418.5t82.5 -486.5q0 -248 -82.5 -488.5t-228.5 -417.5z" />
<glyph unicode="*" horiz-adv-x="708" d="M59 973l203 104l-203 105l56 98l192 -123l-10 229h115l-13 -229l193 123l57 -98l-203 -105l203 -104l-57 -99l-193 125l13 -229h-115l10 229l-192 -125z" />
<glyph unicode="+" horiz-adv-x="1028" d="M59 621v139h379v409h152v-409h379v-139h-379v-424h-152v424h-379z" />
<glyph unicode="," horiz-adv-x="501" d="M106 123q0 58 41.5 99.5t98.5 41.5q66 0 113 -50t47 -136q0 -103 -53 -195.5t-140 -154.5l-96 79q50 30 93.5 85.5t53.5 107.5q-18 -6 -35 -6q-53 0 -88 36t-35 93z" />
<glyph unicode="-" horiz-adv-x="614" d="M61 403v185h492v-185h-492z" />
<glyph unicode="." horiz-adv-x="501" d="M106 121q0 58 42.5 100.5t101.5 42.5q58 0 100.5 -42t42.5 -101t-42.5 -101.5t-100.5 -42.5t-101 42.5t-43 101.5z" />
<glyph unicode="/" horiz-adv-x="645" d="M0 -41l485 1448h160l-485 -1448h-160z" />
<glyph unicode="0" horiz-adv-x="1261" d="M84 682q0 106 19.5 205.5t63 190.5t106 159t155 108.5t203.5 40.5t203.5 -40.5t155 -108.5t106 -159t63 -190.5t19.5 -205.5t-19.5 -206t-63 -191.5t-106 -160t-155 -109t-203.5 -40.5t-203.5 40.5t-155 109t-106 160t-63 191.5t-19.5 206zM328 682q0 -102 16.5 -187.5 t51 -156t94.5 -110.5t141 -40t141 40t94.5 110.5t51 156t16.5 187.5t-16.5 187.5t-51 155.5t-94.5 109.5t-141 39.5t-141 -39.5t-94.5 -109.5t-51 -155.5t-16.5 -187.5z" />
<glyph unicode="1" horiz-adv-x="778" d="M31 969l393 397h209v-1366h-240v1055l-223 -232z" />
<glyph unicode="2" horiz-adv-x="1218" d="M84 1167q88 106 222.5 162.5t281.5 56.5q135 0 245.5 -47.5t180 -145t69.5 -228.5q0 -92 -40 -183.5t-123 -186t-185 -184t-250 -200.5h607v-211h-990v188q145 110 240 184t186 151t143 131t94 110t58.5 104t16.5 97q0 101 -73 155t-175 54q-225 0 -369 -164z" />
<glyph unicode="3" horiz-adv-x="1175" d="M49 197l129 157q66 -77 168 -121.5t211 -44.5q134 0 209.5 56.5t75.5 152.5q0 193 -303 193q-138 0 -158 -2v215q25 -2 158 -2q127 0 203.5 45t76.5 135q0 92 -77.5 142.5t-198.5 50.5q-201 0 -353 -152l-122 149q83 98 209 156.5t288 58.5q224 0 359 -99t135 -269 q0 -65 -26 -121.5t-69.5 -94.5t-95 -62.5t-106.5 -34.5q52 -5 106 -28t102 -62.5t78.5 -103t30.5 -138.5q0 -176 -140.5 -287t-373.5 -111q-174 0 -308 62t-208 160z" />
<glyph unicode="4" horiz-adv-x="1187" d="M57 309v193l561 864h330v-846h182v-211h-182v-309h-239v309h-652zM293 520h416v631z" />
<glyph unicode="5" horiz-adv-x="1228" d="M115 186l137 164q143 -162 369 -162q126 0 203 69t77 171q0 111 -74.5 177.5t-199.5 66.5q-174 0 -299 -119l-170 49v764h895v-211h-656v-395q52 52 134 85.5t176 33.5q116 0 214 -51t160 -153t62 -237q0 -211 -144.5 -337t-375.5 -126q-329 0 -508 211z" />
<glyph unicode="6" horiz-adv-x="1230" d="M84 680q0 201 67 358.5t205 252.5t330 95q239 0 393 -151l-112 -182q-58 61 -123 91t-158 30q-110 0 -193 -63t-125 -164.5t-42 -223.5q0 -27 2 -39q50 76 151 133t215 57q93 0 175 -28.5t145.5 -82t100 -138.5t36.5 -191q0 -195 -140 -327t-364 -132q-117 0 -212 37 t-159.5 101.5t-108.5 154.5t-63.5 193t-19.5 219zM330 508q4 -47 16.5 -90t36.5 -86t57.5 -74t83.5 -50.5t111 -19.5q126 0 200 73t74 165q0 120 -79.5 182t-200.5 62q-87 0 -166.5 -44t-132.5 -118z" />
<glyph unicode="7" horiz-adv-x="1089" d="M55 1155v211h985v-166l-530 -1200h-262l516 1155h-709z" />
<glyph unicode="8" horiz-adv-x="1218" d="M86 350q0 124 87 217.5t220 137.5q-127 40 -205.5 120.5t-78.5 202.5q0 91 43.5 161.5t116 112.5t159.5 63t182 21q74 0 144.5 -12.5t136 -41t114 -69.5t78 -101.5t29.5 -133.5q0 -122 -79.5 -202t-207.5 -121q133 -44 220.5 -137.5t87.5 -217.5q0 -118 -73.5 -204.5 t-190.5 -128.5t-259 -42q-144 0 -260.5 41.5t-190 128t-73.5 205.5zM328 381q0 -87 81 -140t201 -53q118 0 199.5 53t81.5 140q0 50 -31.5 91.5t-78.5 66t-91 39t-80 18.5q-28 -3 -62.5 -12.5t-74 -27.5t-71 -41t-53 -58.5t-21.5 -75.5zM350 991q0 -45 27.5 -81.5t72 -58.5 t83 -34t77.5 -18q39 6 77 18.5t82 34t71.5 58t27.5 81.5q0 84 -73 133.5t-185 49.5q-115 0 -187.5 -49t-72.5 -134z" />
<glyph unicode="9" horiz-adv-x="1230" d="M78 930q0 126 61.5 230t177.5 166.5t265 62.5q117 0 212 -37t159.5 -102t108.5 -155t63.5 -193t19.5 -220q0 -118 -24.5 -224t-74 -194t-120.5 -152t-169 -99.5t-214 -35.5q-239 0 -391 152l110 180q58 -59 123.5 -89t157.5 -30q90 0 160.5 38.5t113 103t64.5 143 t22 164.5v41q-52 -77 -153 -135t-213 -58q-126 0 -228.5 49t-166.5 151.5t-64 242.5zM322 938q0 -119 79.5 -181.5t198.5 -62.5q87 0 167.5 43t131.5 117q-5 59 -24 113t-53.5 102.5t-93.5 77.5t-134 29q-125 0 -198.5 -74t-73.5 -164z" />
<glyph unicode=":" horiz-adv-x="501" d="M106 121q0 58 42.5 100.5t101.5 42.5q58 0 100.5 -42t42.5 -101t-42.5 -101.5t-100.5 -42.5t-101 42.5t-43 101.5zM106 860q0 58 43 101t101 43t100.5 -42.5t42.5 -101.5q0 -58 -42.5 -100.5t-100.5 -42.5q-59 0 -101.5 42.5t-42.5 100.5z" />
<glyph unicode=";" horiz-adv-x="501" d="M106 129q0 58 41.5 99.5t98.5 41.5q66 0 113 -50t47 -136q0 -103 -53 -195.5t-140 -154.5l-96 80q51 30 94 85.5t53 106.5q-18 -6 -35 -6q-53 0 -88 36t-35 93zM106 860q0 58 43 101t101 43t100.5 -42.5t42.5 -101.5q0 -57 -42.5 -100t-100.5 -43t-101 43t-43 100z" />
<glyph unicode="&#x3c;" horiz-adv-x="1028" d="M59 608v154l910 426v-166l-748 -338l748 -336v-164z" />
<glyph unicode="=" horiz-adv-x="1028" d="M59 420v137h910v-137h-910zM59 809v139h910v-139h-910z" />
<glyph unicode="&#x3e;" horiz-adv-x="1028" d="M59 184v164l746 336l-746 338v166l910 -426v-154z" />
<glyph unicode="?" horiz-adv-x="937" d="M27 1184q79 96 194 149t252 53q190 0 303 -90t113 -231q0 -71 -27 -130t-68 -96.5t-88.5 -74t-88.5 -64.5t-68 -66t-27 -81q0 -54 45 -92l-180 -60q-74 71 -74 174q0 51 18 94.5t47.5 74.5t64.5 58.5t70 52t64.5 49.5t47.5 56t18 66q0 64 -49.5 106t-144.5 42 q-168 0 -285 -144zM317 121q0 58 42.5 100.5t101.5 42.5t101 -42t42 -101t-42.5 -101.5t-100.5 -42.5q-59 0 -101.5 42.5t-42.5 101.5z" />
<glyph unicode="@" horiz-adv-x="1603" d="M72 500q0 214 114 401t301.5 296.5t397.5 109.5q189 0 338 -87t228 -231.5t79 -318.5q0 -120 -35 -217.5t-91.5 -156.5t-123 -90.5t-133.5 -31.5q-86 0 -136.5 45.5t-58.5 112.5l-2 12q-55 -77 -137.5 -123.5t-169.5 -46.5q-144 0 -229.5 94.5t-85.5 245.5 q0 136 67.5 253.5t176 185t227.5 67.5q91 0 158.5 -40.5t99.5 -105.5l24 115h193l-111 -522q-4 -24 -4 -47q0 -48 23.5 -73t60.5 -25q32 0 66 19.5t66 58.5t52.5 109.5t20.5 160.5q0 249 -156.5 405t-414.5 156q-115 0 -225.5 -38.5t-200.5 -107.5t-159 -159t-107 -199.5 t-38 -222.5q0 -161 75 -292.5t208.5 -206.5t298.5 -75q198 0 377 113l41 -57q-200 -129 -426 -129q-183 0 -332 85t-233 232t-84 326zM526 528q0 -89 50.5 -144.5t136.5 -55.5q150 0 260 155l55 258q-21 49 -68.5 87t-117.5 38q-131 0 -223.5 -103.5t-92.5 -234.5z" />
<glyph unicode="A" horiz-adv-x="1378" d="M2 0l537 1366h299l536 -1366h-272l-101 262h-626l-101 -262h-272zM442 473h492l-246 651z" />
<glyph unicode="B" horiz-adv-x="1327" d="M145 0v1366h672q182 0 285.5 -99t103.5 -249q0 -124 -68.5 -208t-168.5 -105q110 -17 187 -114t77 -222q0 -163 -105 -266t-292 -103h-691zM385 211h393q98 0 153.5 50.5t55.5 139.5q0 81 -55 135t-154 54h-393v-379zM385 801h383q90 0 141.5 49t51.5 127 q0 79 -51.5 128.5t-141.5 49.5h-383v-354z" />
<glyph unicode="C" horiz-adv-x="1396" d="M84 682q0 154 55.5 287t151.5 224.5t228 143.5t282 52q357 0 549 -308l-205 -104q-51 88 -144 143.5t-200 55.5q-203 0 -337 -139.5t-134 -354.5t134 -354.5t337 -139.5q108 0 200.5 55t143.5 144l205 -104q-195 -308 -549 -308q-150 0 -282 52t-228 143.5t-151.5 224.5 t-55.5 287z" />
<glyph unicode="D" horiz-adv-x="1454" d="M145 0v1366h508q210 0 373 -87t252.5 -242.5t89.5 -354.5t-89.5 -354t-252.5 -241.5t-373 -86.5h-508zM385 211h268q144 0 252 64.5t162.5 170.5t54.5 236q0 206 -124 339.5t-345 133.5h-268v-944z" />
<glyph unicode="E" horiz-adv-x="1181" d="M145 0v1366h936v-211h-696v-354h682v-211h-682v-379h696v-211h-936z" />
<glyph unicode="F" horiz-adv-x="1150" d="M145 0v1366h936v-211h-696v-354h682v-211h-682v-590h-240z" />
<glyph unicode="G" horiz-adv-x="1468" d="M84 682q0 157 56.5 290.5t153.5 224t228.5 141.5t278.5 51q351 0 551 -285l-197 -111q-57 81 -150 132t-204 51q-203 0 -337 -139.5t-134 -354.5t134 -355.5t337 -140.5q96 0 183 37t140 86v213h-407v211h647v-512q-105 -117 -247.5 -182.5t-315.5 -65.5 q-198 0 -360.5 87t-259.5 250t-97 372z" />
<glyph unicode="H" horiz-adv-x="1480" d="M145 0v1366h240v-559h711v559h239v-1366h-239v596h-711v-596h-240z" />
<glyph unicode="I" horiz-adv-x="530" d="M145 0v1366h240v-1366h-240z" />
<glyph unicode="J" horiz-adv-x="985" d="M16 119l111 182q105 -113 233 -113q110 0 175 67.5t65 180.5v930h240v-934q0 -225 -127 -341t-334 -116q-227 0 -363 144z" />
<glyph unicode="K" horiz-adv-x="1271" d="M145 0v1366h240v-651l535 651h297l-555 -645l595 -721h-294l-459 575l-119 -139v-436h-240z" />
<glyph unicode="L" horiz-adv-x="1058" d="M145 0v1366h240v-1155h602v-211h-842z" />
<glyph unicode="M" horiz-adv-x="1710" d="M145 0v1366h338l371 -899l373 899h338v-1366h-240v1014l-420 -1014h-102l-418 1014v-1014h-240z" />
<glyph unicode="N" horiz-adv-x="1474" d="M145 0v1366h246l699 -948v948h239v-1366h-231l-713 975v-975h-240z" />
<glyph unicode="O" horiz-adv-x="1566" d="M84 682q0 202 88.5 363.5t248 252.5t361.5 91q151 0 281.5 -53.5t222 -147t143.5 -224.5t52 -282t-52 -282t-143.5 -224.5t-222 -147t-281.5 -53.5q-202 0 -361.5 91t-248 252.5t-88.5 363.5zM330 682q0 -214 124 -354t328 -140q203 0 328 140t125 354q0 215 -125 354.5 t-328 139.5q-204 0 -328 -139t-124 -355z" />
<glyph unicode="P" horiz-adv-x="1245" d="M145 0v1366h600q207 0 327 -123.5t120 -304.5t-120.5 -304.5t-326.5 -123.5h-360v-510h-240zM385 721h328q102 0 167.5 60t65.5 157t-65.5 157t-167.5 60h-328v-434z" />
<glyph unicode="Q" horiz-adv-x="1566" d="M84 682q0 202 88.5 363.5t248 252.5t361.5 91q151 0 281.5 -53.5t222 -147t143.5 -224.5t52 -282q0 -293 -183 -492l113 -127l-166 -139l-119 133q-152 -82 -344 -82q-202 0 -361.5 91t-248 252.5t-88.5 363.5zM330 682q0 -214 124 -354t328 -140q106 0 193 41l-168 193 l166 137l168 -192q94 129 94 315q0 215 -125 354.5t-328 139.5q-204 0 -328 -139t-124 -355z" />
<glyph unicode="R" horiz-adv-x="1286" d="M145 0v1366h600q201 0 324 -119t123 -309q0 -88 -27 -161t-73.5 -121.5t-103 -78.5t-120.5 -40l334 -537h-276l-303 510h-238v-510h-240zM385 721h328q102 0 167.5 60t65.5 157t-65.5 157t-167.5 60h-328v-434z" />
<glyph unicode="S" horiz-adv-x="1216" d="M57 193l133 184q78 -83 189 -136t244 -53q137 0 205.5 55.5t68.5 131.5q0 46 -27.5 80t-73.5 55.5t-105.5 38.5t-126 33.5t-132.5 36t-125.5 50t-105.5 71t-73.5 103.5t-27.5 144q0 171 138.5 285t359.5 114q316 0 512 -190l-137 -178q-77 77 -180.5 116.5t-214.5 39.5 q-105 0 -168.5 -46.5t-63.5 -123.5q0 -40 27 -70.5t73 -50t106 -36t125.5 -33.5t131.5 -37.5t126 -52.5t106 -74t73 -106.5t27 -146.5q0 -87 -31.5 -162t-94 -134t-166 -92.5t-237.5 -33.5q-351 0 -555 218z" />
<glyph unicode="T" horiz-adv-x="1181" d="M57 1155v211h1067v-211h-413v-1155h-240v1155h-414z" />
<glyph unicode="U" horiz-adv-x="1472" d="M145 539v827h242v-819q0 -166 90.5 -262.5t259.5 -96.5q167 0 257.5 96.5t90.5 262.5v819h242v-825q0 -262 -150.5 -414t-439.5 -152q-290 0 -441 152t-151 412z" />
<glyph unicode="V" horiz-adv-x="1378" d="M2 1366h272l414 -1106l414 1106h272l-536 -1366h-299z" />
<glyph unicode="W" horiz-adv-x="1849" d="M12 1366h269l266 -1053l282 1053h191l283 -1053l264 1053h268l-389 -1366h-256l-266 1008l-265 -1008h-256z" />
<glyph unicode="X" horiz-adv-x="1353" d="M6 0l512 700l-481 666h287l352 -502l350 502h289l-479 -664l510 -702h-287l-383 535l-383 -535h-287z" />
<glyph unicode="Y" horiz-adv-x="1304" d="M2 1366h274l377 -586l373 586h274l-528 -799v-567h-240v567z" />
<glyph unicode="Z" horiz-adv-x="1206" d="M90 0v195l698 960h-698v211h1010v-195l-699 -960h713v-211h-1024z" />
<glyph unicode="[" horiz-adv-x="540" d="M90 -389v1778h416v-148h-258v-1483h258v-147h-416z" />
<glyph unicode="\" horiz-adv-x="645" d="M0 1407h160l485 -1448h-160z" />
<glyph unicode="]" horiz-adv-x="540" d="M35 -242h258v1483h-258v148h416v-1778h-416v147z" />
<glyph unicode="^" horiz-adv-x="894" d="M39 682l330 684h159l328 -684h-164l-246 535l-243 -535h-164z" />
<glyph unicode="_" horiz-adv-x="1155" d="M-6 -82h1167v-147h-1167v147z" />
<glyph unicode="`" horiz-adv-x="491" d="M0 1434h205l287 -295h-154z" />
<glyph unicode="a" horiz-adv-x="1097" d="M80 303q0 82 30.5 145.5t81 101t110 56.5t122.5 19q210 0 319 -127v147q0 85 -63.5 134.5t-167.5 49.5q-166 0 -293 -124l-88 149q169 160 416 160q86 0 157.5 -19.5t129.5 -60t91 -112t33 -167.5v-655h-215v106q-56 -63 -138.5 -97t-180.5 -34q-62 0 -122 21 t-110.5 60.5t-81 103.5t-30.5 143zM297 299q0 -79 59.5 -127.5t151.5 -48.5q73 0 136 26.5t99 75.5v150q-36 49 -99 75.5t-136 26.5q-92 0 -151.5 -48.5t-59.5 -129.5z" />
<glyph unicode="b" horiz-adv-x="1189" d="M139 0v1366h215v-514q58 78 141 120t177 42q193 0 315.5 -142t122.5 -378q0 -240 -122.5 -379.5t-315.5 -139.5q-95 0 -177.5 42.5t-140.5 117.5v-135h-215zM354 297q36 -56 108 -93.5t146 -37.5q128 0 204.5 91t76.5 237t-76.5 237.5t-204.5 91.5q-74 0 -146 -39 t-108 -96v-391z" />
<glyph unicode="c" horiz-adv-x="1017" d="M78 496q0 225 143.5 371.5t368.5 146.5q248 0 379 -176l-142 -131q-82 116 -227 116q-134 0 -216.5 -91t-82.5 -236q0 -146 82.5 -238t216.5 -92q142 0 227 117l142 -131q-132 -177 -379 -177q-225 0 -368.5 147t-143.5 374z" />
<glyph unicode="d" horiz-adv-x="1189" d="M78 494q0 236 122.5 378t317.5 142q92 0 175 -42t143 -120v514h215v-1366h-215v135q-58 -75 -141 -117.5t-177 -42.5q-195 0 -317.5 139.5t-122.5 379.5zM301 494q0 -144 76.5 -236t202.5 -92q75 0 147 37.5t109 93.5v393q-38 57 -109.5 95t-146.5 38 q-126 0 -202.5 -91.5t-76.5 -237.5z" />
<glyph unicode="e" horiz-adv-x="1140" d="M78 496q0 142 63.5 260.5t179.5 188t259 69.5q220 0 353.5 -151.5t133.5 -387.5v-51h-764q13 -117 96.5 -194.5t218.5 -77.5q75 0 152.5 28.5t128.5 79.5l98 -141q-73 -70 -177 -107t-224 -37q-225 0 -371.5 144.5t-146.5 376.5zM301 575h557q-2 46 -18.5 90.5 t-48.5 84.5t-86.5 64t-124.5 24q-66 0 -119.5 -23.5t-86 -63t-51 -84t-22.5 -92.5z" />
<glyph unicode="f" horiz-adv-x="630" d="M27 801v188h163v55q0 159 85.5 250.5t228.5 91.5q154 0 237 -86l-84 -133q-46 43 -114 43q-64 0 -100.5 -42t-36.5 -124v-55h200v-188h-200v-801h-216v801h-163z" />
<glyph unicode="g" horiz-adv-x="1187" d="M78 506q0 235 122 371.5t316 136.5q94 0 176 -42t142 -120v137h215v-938q0 -103 -30 -183.5t-78.5 -130t-116 -81.5t-136.5 -44.5t-147 -12.5q-131 0 -228.5 33t-185.5 114l100 156q110 -127 314 -127q56 0 105.5 14t93 43.5t69 83.5t25.5 127v119q-59 -76 -141.5 -120 t-176.5 -44q-194 0 -316 134.5t-122 373.5zM301 506q0 -143 76 -230.5t203 -87.5q74 0 146 39t108 95v368q-36 56 -108 94.5t-146 38.5q-127 0 -203 -87t-76 -230z" />
<glyph unicode="h" d="M139 0v1366h215v-512q56 66 149 113t202 47q159 0 239 -80t80 -234v-700h-215v623q0 109 -51.5 154.5t-149.5 45.5q-77 0 -144.5 -38.5t-109.5 -94.5v-690h-215z" />
<glyph unicode="i" horiz-adv-x="493" d="M113 1243q0 55 39.5 94t93.5 39q56 0 94.5 -39t38.5 -94t-38.5 -94t-94.5 -39q-54 0 -93.5 39t-39.5 94zM139 0v989h215v-989h-215z" />
<glyph unicode="j" horiz-adv-x="493" d="M-207 -330l64 160q62 -55 137 -55q66 0 105.5 42t39.5 126v1046h215v-1046q0 -161 -83.5 -252.5t-243.5 -91.5q-82 0 -131 16t-103 55zM113 1243q0 55 39.5 94t93.5 39q56 0 94.5 -39t38.5 -94t-38.5 -94t-94.5 -39q-54 0 -93.5 39t-39.5 94z" />
<glyph unicode="k" horiz-adv-x="1077" d="M139 0v1366h215v-854l437 477h266l-412 -448l420 -541h-270l-303 408l-138 -142v-266h-215z" />
<glyph unicode="l" horiz-adv-x="493" d="M139 0v1366h215v-1366h-215z" />
<glyph unicode="m" horiz-adv-x="1705" d="M139 0v989h215v-135q37 56 128.5 108t193.5 52q107 0 175.5 -49t94.5 -134q47 74 139.5 128.5t196.5 54.5q138 0 211.5 -75t73.5 -224v-715h-215v645q0 83 -39.5 130.5t-122.5 47.5q-67 0 -130 -39.5t-99 -91.5v-692h-216v645q0 178 -163 178q-66 0 -128.5 -39.5 t-99.5 -93.5v-690h-215z" />
<glyph unicode="n" horiz-adv-x="1161" d="M139 0v989h215v-135q56 66 148 113t200 47q158 0 239 -82t81 -236v-696h-215v618q0 110 -51.5 157.5t-147.5 47.5q-78 0 -146 -38.5t-108 -94.5v-690h-215z" />
<glyph unicode="o" horiz-adv-x="1173" d="M78 496q0 106 36 200.5t100.5 165t160.5 111.5t211 41q154 0 271.5 -71t178 -187.5t60.5 -259.5q0 -144 -60.5 -261.5t-178 -188.5t-271.5 -71q-115 0 -211 41.5t-160.5 112t-100.5 165.5t-36 202zM301 496q0 -138 77 -234t208 -96q133 0 209.5 95.5t76.5 234.5 q0 137 -76.5 232t-209.5 95q-131 0 -208 -95t-77 -232z" />
<glyph unicode="p" horiz-adv-x="1183" d="M139 -377v1366h215v-135q56 75 139.5 117.5t178.5 42.5q196 0 317 -139t121 -379q0 -241 -121.5 -381t-316.5 -140q-94 0 -176 41.5t-142 120.5v-514h-215zM354 299q36 -55 108.5 -94t145.5 -39q126 0 202.5 92t76.5 238q0 144 -76.5 235.5t-202.5 91.5q-74 0 -146 -38.5 t-108 -94.5v-391z" />
<glyph unicode="q" horiz-adv-x="1183" d="M74 496q0 240 121 379t317 139q95 0 177.5 -42.5t139.5 -117.5v135h215v-1366h-215v514q-122 -162 -317 -162t-316.5 140t-121.5 381zM297 496q0 -146 76 -238t202 -92q73 0 145.5 39t108.5 94v391q-36 56 -108 94.5t-146 38.5q-126 0 -202 -91.5t-76 -235.5z" />
<glyph unicode="r" horiz-adv-x="710" d="M139 0v989h215v-145q59 74 144 121t178 47v-213q-27 6 -68 6q-68 0 -145 -39.5t-109 -91.5v-674h-215z" />
<glyph unicode="s" horiz-adv-x="966" d="M53 129l99 156q56 -57 149.5 -98.5t185.5 -41.5q94 0 144.5 37t50.5 97q0 39 -33 65t-85.5 40.5t-116.5 27.5t-128 33t-116.5 50t-85.5 85.5t-33 132.5q0 127 104 214t285 87q227 0 385 -140l-90 -151q-46 53 -124.5 86t-168.5 33q-84 0 -134 -34t-50 -87q0 -31 25.5 -53 t67.5 -34t96 -25.5t110 -25t110 -35.5t96 -55.5t67.5 -85.5t25.5 -124q0 -135 -109 -221.5t-303 -86.5q-127 0 -237.5 40t-186.5 114z" />
<glyph unicode="t" horiz-adv-x="653" d="M18 801v188h164v271h215v-271h201v-188h-201v-518q0 -52 25 -84.5t70 -32.5q29 0 56 10.5t40 24.5l51 -162q-67 -64 -203 -64q-124 0 -189 65.5t-65 188.5v572h-164z" />
<glyph unicode="u" horiz-adv-x="1161" d="M139 289v700h215v-622q0 -110 51 -155.5t148 -45.5q77 0 145 37t109 92v694h215v-989h-215v131q-60 -67 -150.5 -111.5t-199.5 -44.5q-158 0 -238 80t-80 234z" />
<glyph unicode="v" horiz-adv-x="1030" d="M-4 989h229l289 -741l289 741h231l-403 -989h-232z" />
<glyph unicode="w" horiz-adv-x="1544" d="M10 989h223l209 -719l236 719h188l236 -719l209 719h223l-307 -989h-226l-229 725l-229 -725h-226z" />
<glyph unicode="x" horiz-adv-x="1015" d="M10 0l363 508l-342 481h241l236 -336l233 336h242l-342 -481l365 -508h-242l-256 365l-258 -365h-240z" />
<glyph unicode="y" horiz-adv-x="1030" d="M-4 989h229l289 -741l289 741h231l-477 -1167q-49 -120 -133 -170.5t-207 -52.5q-67 0 -121 14l33 192q37 -16 82 -16q53 0 86.5 19t54.5 67l49 113z" />
<glyph unicode="z" horiz-adv-x="974" d="M94 0v162l490 639h-490v188h776v-158l-493 -645h502v-186h-785z" />
<glyph unicode="{" horiz-adv-x="565" d="M8 436v127q52 0 79.5 39.5t27.5 99.5v381q0 136 86.5 221t204.5 85h124v-148h-124q-55 0 -93.5 -44.5t-38.5 -113.5v-401q0 -142 -94 -182q94 -40 94 -183v-401q0 -68 38.5 -113t93.5 -45h124v-147h-124q-118 0 -204.5 83.5t-86.5 219.5v383q0 60 -27.5 99.5t-79.5 39.5z " />
<glyph unicode="|" horiz-adv-x="438" d="M145 -41v1448h148v-1448h-148z" />
<glyph unicode="}" horiz-adv-x="565" d="M35 -242h125q55 0 93 45t38 113v401q0 143 94 183q-94 40 -94 182v401q0 69 -38 113.5t-93 44.5h-125v148h125q118 0 204.5 -85t86.5 -221v-381q0 -60 27 -99.5t79 -39.5v-127q-52 0 -79 -39.5t-27 -99.5v-383q0 -136 -86.5 -219.5t-204.5 -83.5h-125v147z" />
<glyph unicode="~" horiz-adv-x="1038" d="M53 870q6 67 15 122.5t24 114.5t37 103t52.5 80t73 55t95.5 19t93.5 -20.5t64.5 -54t41.5 -73.5t30.5 -79.5t26.5 -73t33.5 -54t48 -20.5q117 0 146 377l149 -18q-7 -82 -17.5 -147t-32 -132.5t-52.5 -112.5t-80.5 -73.5t-112.5 -28.5q-61 0 -106 27.5t-67.5 69t-42 90 t-32.5 90t-35.5 69t-54.5 27.5q-111 0 -145 -375z" />
<glyph unicode="&#xa2;" horiz-adv-x="1017" d="M78 496q0 201 117.5 342t308.5 170v149h160v-147q194 -23 305 -172l-142 -131q-65 89 -163 110v-645q97 21 163 111l142 -131q-111 -149 -305 -172v-185h-160v187q-191 28 -308.5 169t-117.5 345zM301 496q0 -117 54.5 -202t148.5 -114v629q-94 -31 -148.5 -114 t-54.5 -199z" />
<glyph unicode="&#xa3;" horiz-adv-x="1097" d="M43 549v143h170q-38 49 -59 81.5t-40.5 86.5t-19.5 111q0 119 69 215.5t178.5 148t233.5 51.5q158 0 273 -60.5t176 -178.5l-190 -113q-27 67 -90 111.5t-142 44.5q-104 0 -176 -61.5t-72 -161.5q0 -35 6.5 -66t23 -62t27.5 -48.5t36 -52t34 -46.5h301v-143h-237 q6 -27 6 -60q0 -78 -39.5 -141t-103.5 -104q50 16 104 16q64 0 147 -37t136 -37q61 0 110 23.5t74 54.5l96 -190q-97 -101 -291 -101q-60 0 -114 14.5t-86.5 32t-77.5 32t-90 14.5q-91 0 -240 -80l-82 168q114 53 179 125t65 155q0 56 -27 115h-268z" />
<glyph unicode="&#xa5;" horiz-adv-x="1304" d="M2 1366h274l377 -586l373 586h274l-438 -661h398v-138h-488v-188h488v-137h-488v-242h-240v242h-485v137h485v188h-485v138h393z" />
<glyph unicode="&#xa8;" horiz-adv-x="583" d="M-43 1245q0 50 35 84.5t86 34.5q50 0 84.5 -35t34.5 -84q0 -51 -34.5 -86t-84.5 -35q-51 0 -86 35t-35 86zM385 1245q0 49 35.5 84t85.5 35t85.5 -35t35.5 -84q0 -51 -35.5 -86t-85.5 -35t-85.5 35t-35.5 86z" />
<glyph unicode="&#xa9;" horiz-adv-x="1593" d="M90 684q0 192 95 355t258 257.5t354 94.5q144 0 275 -56t225 -150.5t150 -225.5t56 -275q0 -143 -56 -274t-150 -226t-225 -151t-275 -56q-191 0 -354 95t-258 258t-95 354zM160 684q0 -129 50.5 -247t136 -203.5t203.5 -136t247 -50.5t247 50.5t203.5 136t136 203.5 t50.5 247t-50.5 247t-136 203.5t-203.5 136t-247 50.5t-247 -50.5t-203.5 -136t-136 -203.5t-50.5 -247zM379 686q0 186 123.5 309t302.5 123q185 0 301 -135l-59 -57q-40 54 -105 85t-137 31q-140 0 -240 -100t-100 -256q0 -154 100.5 -257t239.5 -103q73 0 138.5 32 t105.5 86l59 -57q-118 -137 -303 -137q-178 0 -302 125t-124 311z" />
<glyph unicode="&#xab;" horiz-adv-x="1001" d="M61 498l328 362h203l-328 -362l328 -369h-203zM410 498l327 362h203l-328 -362l328 -369h-203z" />
<glyph unicode="&#xae;" horiz-adv-x="1011" d="M72 952q0 181 127 307.5t307 126.5q119 0 219 -57.5t157.5 -157.5t57.5 -219q0 -180 -126.5 -307t-307.5 -127q-180 0 -307 127t-127 307zM133 952q0 -154 109 -263t264 -109q154 0 262.5 109t108.5 263q0 155 -108.5 263t-262.5 108q-155 0 -264 -108t-109 -263z M340 702v498h203q65 0 112 -42t47 -109q0 -72 -46 -110t-81 -38l134 -199h-84l-129 197h-88v-197h-68zM408 961h135q34 0 62 25.5t28 62.5q0 39 -28 65.5t-62 26.5h-135v-180z" />
<glyph unicode="&#xb4;" horiz-adv-x="491" d="M0 1139l287 295h205l-338 -295h-154z" />
<glyph unicode="&#xb8;" horiz-adv-x="438" d="M0 -334l45 94q73 -59 166 -59q47 0 81 19.5t34 54.5q0 61 -68 61q-42 0 -70 -31l-84 48l64 170h113l-54 -132q33 23 74 23q59 0 98 -39.5t39 -101.5q0 -76 -64 -123t-157 -47q-67 0 -125.5 18t-91.5 45z" />
<glyph unicode="&#xbb;" horiz-adv-x="1001" d="M61 129l328 369l-328 362h203l328 -362l-328 -369h-203zM410 129l327 369l-327 362h202l328 -362l-328 -369h-202z" />
<glyph unicode="&#x2c6;" horiz-adv-x="583" d="M0 1139l190 295h197l197 -295h-138l-157 196l-154 -196h-135z" />
<glyph unicode="&#x2da;" horiz-adv-x="415" d="M0 1307q0 86 61.5 148.5t147.5 62.5t146.5 -62t60.5 -149q0 -86 -60.5 -147.5t-146.5 -61.5t-147.5 61.5t-61.5 147.5zM102 1307q0 -43 32 -75t75 -32q44 0 74 32t30 75q0 44 -30 75t-74 31q-43 0 -75 -31t-32 -75z" />
<glyph unicode="&#x2dc;" horiz-adv-x="657" d="M0 1147q0 128 55 201t156 73q39 0 70.5 -16.5t52 -39.5t38.5 -46.5t39 -40t44 -16.5q37 0 60.5 37t23.5 110h118q0 -128 -55 -201t-156 -73q-40 0 -71.5 16.5t-51.5 39.5t-37.5 46.5t-38.5 40t-44 16.5q-38 0 -62 -37t-24 -110h-117z" />
<glyph unicode="&#x401;" horiz-adv-x="1181" d="M145 0v1366h936v-211h-696v-354h682v-211h-682v-379h696v-211h-936zM276 1587q0 50 35 84.5t86 34.5q49 0 84 -35t35 -84q0 -51 -34.5 -86t-84.5 -35q-51 0 -86 35t-35 86zM705 1587q0 49 35 84t85 35t85.5 -35t35.5 -84q0 -51 -35.5 -86t-85.5 -35t-85 35t-35 86z" />
<glyph unicode="&#x402;" horiz-adv-x="1564" d="M57 1155v211h1067v-211h-413v-350q141 51 309 51q122 0 218 -35.5t154.5 -96.5t88.5 -139t30 -167v-21q0 -138 -65.5 -235t-171.5 -142t-242 -45v213q110 0 175 57.5t65 151.5v21q0 108 -71.5 167.5t-205.5 59.5q-156 0 -284 -51v-594h-240v1155h-414z" />
<glyph unicode="&#x403;" horiz-adv-x="1150" d="M145 0v1366h936v-211h-696v-1155h-240zM451 1481l286 295h205l-338 -295h-153z" />
<glyph unicode="&#x404;" horiz-adv-x="1396" d="M84 682q0 154 55.5 287t151.5 224.5t228 143.5t282 52q357 0 549 -308l-205 -104q-51 88 -144 143.5t-200 55.5q-172 0 -298 -103.5t-161 -271.5h725v-211h-731q29 -180 157 -291t308 -111q108 0 200.5 55t143.5 144l205 -104q-195 -308 -549 -308q-150 0 -282 52 t-228 143.5t-151.5 224.5t-55.5 287z" />
<glyph unicode="&#x405;" horiz-adv-x="1216" d="M57 193l133 184q78 -83 189 -136t244 -53q137 0 205.5 55.5t68.5 131.5q0 46 -27.5 80t-73.5 55.5t-105.5 38.5t-126 33.5t-132.5 36t-125.5 50t-105.5 71t-73.5 103.5t-27.5 144q0 171 138.5 285t359.5 114q316 0 512 -190l-137 -178q-77 77 -180.5 116.5t-214.5 39.5 q-105 0 -168.5 -46.5t-63.5 -123.5q0 -40 27 -70.5t73 -50t106 -36t125.5 -33.5t131.5 -37.5t126 -52.5t106 -74t73 -106.5t27 -146.5q0 -87 -31.5 -162t-94 -134t-166 -92.5t-237.5 -33.5q-351 0 -555 218z" />
<glyph unicode="&#x406;" horiz-adv-x="530" d="M145 0v1366h240v-1366h-240z" />
<glyph unicode="&#x407;" horiz-adv-x="530" d="M-70 1587q0 50 35 84.5t86 34.5q49 0 84 -35t35 -84q0 -51 -34.5 -86t-84.5 -35q-51 0 -86 35t-35 86zM145 0v1366h240v-1366h-240zM358 1587q0 49 35.5 84t85.5 35t85.5 -35t35.5 -84q0 -51 -35.5 -86t-85.5 -35t-85.5 35t-35.5 86z" />
<glyph unicode="&#x408;" horiz-adv-x="985" d="M16 119l111 182q105 -113 233 -113q110 0 175 67.5t65 180.5v930h240v-934q0 -225 -127 -341t-334 -116q-227 0 -363 144z" />
<glyph unicode="&#x409;" horiz-adv-x="2195" d="M57 -25v213q59 0 98.5 18t74 68.5t58 145t40.5 244.5l80 702h927v-510h361q206 0 326 -123.5t120 -304.5t-119.5 -304.5t-326.5 -123.5h-600v1155h-473l-58 -508q-14 -123 -35.5 -220t-47.5 -167t-61.5 -121t-73 -82.5t-86 -50t-96 -25t-108.5 -6.5zM1335 211h328 q102 0 167.5 60t65.5 157t-65.5 157t-167.5 60h-328v-434z" />
<glyph unicode="&#x40a;" horiz-adv-x="2195" d="M145 0v1366h240v-559h711v559h239v-559h387q194 0 307 -116.5t113 -287.5q0 -172 -112.5 -287.5t-307.5 -115.5h-626v596h-711v-596h-240zM1335 211h355q92 0 149 52.5t57 139.5t-57.5 140t-148.5 53h-355v-385z" />
<glyph unicode="&#x40b;" horiz-adv-x="1617" d="M57 1155v211h1067v-211h-413v-350q141 51 309 51q245 0 368 -131.5t123 -362.5v-362h-239v362q0 145 -70 214t-207 69q-156 0 -284 -51v-594h-240v1155h-414z" />
<glyph unicode="&#x40c;" horiz-adv-x="1271" d="M145 0v1366h240v-651l535 651h297l-555 -645l595 -721h-294l-459 575l-119 -139v-436h-240zM518 1481l287 295h205l-338 -295h-154z" />
<glyph unicode="&#x40e;" horiz-adv-x="1304" d="M2 1366h272l377 -797l377 797h272l-569 -1110q-34 -67 -69.5 -114t-85 -87t-116 -60t-151.5 -20q-87 0 -166 29t-114 66l86 196q89 -78 178 -78q80 0 125.5 37.5t97.5 136.5zM293 1616l98 82q97 -135 262 -135q81 0 148 35.5t112 99.5l99 -82q-62 -84 -156 -132t-203 -48 q-107 0 -201.5 48t-158.5 132z" />
<glyph unicode="&#x40f;" horiz-adv-x="1480" d="M145 0v1366h240v-1155h711v1155h239v-1366h-475v-262h-239v262h-476z" />
<glyph unicode="&#x410;" horiz-adv-x="1378" d="M2 0l537 1366h299l536 -1366h-272l-101 262h-626l-101 -262h-272zM442 473h492l-246 651z" />
<glyph unicode="&#x411;" horiz-adv-x="1245" d="M145 0v1366h936v-211h-696v-299h360q206 0 326.5 -123.5t120.5 -304.5t-120 -304.5t-327 -123.5h-600zM385 211h328q102 0 167.5 60t65.5 157t-65.5 157t-167.5 60h-328v-434z" />
<glyph unicode="&#x412;" horiz-adv-x="1327" d="M145 0v1366h672q182 0 285.5 -99t103.5 -249q0 -124 -68.5 -208t-168.5 -105q110 -17 187 -114t77 -222q0 -163 -105 -266t-292 -103h-691zM385 211h393q98 0 153.5 50.5t55.5 139.5q0 81 -55 135t-154 54h-393v-379zM385 801h383q90 0 141.5 49t51.5 127 q0 79 -51.5 128.5t-141.5 49.5h-383v-354z" />
<glyph unicode="&#x413;" horiz-adv-x="1150" d="M145 0v1366h936v-211h-696v-1155h-240z" />
<glyph unicode="&#x414;" horiz-adv-x="1499" d="M57 188q49 5 81 17t64 41.5t53.5 80.5t40 134t32.5 203l80 702h927v-1155h127v-463h-239v252h-926v-252h-240v440zM385 211h711v944h-473l-58 -508q-36 -304 -180 -436z" />
<glyph unicode="&#x415;" horiz-adv-x="1181" d="M145 0v1366h936v-211h-696v-354h682v-211h-682v-379h696v-211h-936z" />
<glyph unicode="&#x416;" horiz-adv-x="1910" d="M14 0l596 721l-555 645h297l484 -590v590h239v-590l484 590h296l-555 -645l596 -721h-294l-459 575l-68 -79v-496h-239v496l-68 79l-459 -575h-295z" />
<glyph unicode="&#x417;" horiz-adv-x="1226" d="M49 197l129 157q65 -75 178.5 -120.5t225.5 -45.5q145 0 228 56.5t83 152.5q0 193 -330 193h-274v211h274q138 0 222.5 45t84.5 135q0 92 -85.5 142.5t-217.5 50.5q-105 0 -204.5 -39.5t-172.5 -112.5l-122 149q81 96 219 155.5t303 59.5q226 0 373 -100t147 -268 q0 -65 -26 -121.5t-69.5 -94.5t-95 -62.5t-106.5 -34.5q52 -5 106 -28t102 -62.5t78.5 -103t30.5 -138.5q0 -173 -152 -285.5t-388 -112.5q-177 0 -323 63t-218 159z" />
<glyph unicode="&#x418;" horiz-adv-x="1474" d="M145 0v1366h240v-948l698 948h246v-1366h-239v975l-713 -975h-232z" />
<glyph unicode="&#x419;" horiz-adv-x="1474" d="M145 0v1366h240v-948l698 948h246v-1366h-239v975l-713 -975h-232zM377 1616l98 82q97 -135 262 -135q81 0 148 35.5t112 99.5l99 -82q-62 -84 -156 -132t-203 -48q-107 0 -201.5 48t-158.5 132z" />
<glyph unicode="&#x41a;" horiz-adv-x="1271" d="M145 0v1366h240v-651l535 651h297l-555 -645l595 -721h-294l-459 575l-119 -139v-436h-240z" />
<glyph unicode="&#x41b;" horiz-adv-x="1480" d="M57 -25v213q59 0 98.5 18t74 68.5t58 145t40.5 244.5l80 702h927v-1366h-239v1155h-473l-58 -508q-14 -123 -35.5 -220t-47.5 -167t-61.5 -121t-73 -82.5t-86 -50t-96 -25t-108.5 -6.5z" />
<glyph unicode="&#x41c;" horiz-adv-x="1710" d="M145 0v1366h338l371 -899l373 899h338v-1366h-240v1014l-420 -1014h-102l-418 1014v-1014h-240z" />
<glyph unicode="&#x41d;" horiz-adv-x="1480" d="M145 0v1366h240v-559h711v559h239v-1366h-239v596h-711v-596h-240z" />
<glyph unicode="&#x41e;" horiz-adv-x="1566" d="M84 682q0 202 88.5 363.5t248 252.5t361.5 91q151 0 281.5 -53.5t222 -147t143.5 -224.5t52 -282t-52 -282t-143.5 -224.5t-222 -147t-281.5 -53.5q-202 0 -361.5 91t-248 252.5t-88.5 363.5zM330 682q0 -214 124 -354t328 -140q203 0 328 140t125 354q0 215 -125 354.5 t-328 139.5q-204 0 -328 -139t-124 -355z" />
<glyph unicode="&#x41f;" horiz-adv-x="1480" d="M145 0v1366h1190v-1366h-239v1155h-711v-1155h-240z" />
<glyph unicode="&#x420;" horiz-adv-x="1245" d="M145 0v1366h600q207 0 327 -123.5t120 -304.5t-120.5 -304.5t-326.5 -123.5h-360v-510h-240zM385 721h328q102 0 167.5 60t65.5 157t-65.5 157t-167.5 60h-328v-434z" />
<glyph unicode="&#x421;" horiz-adv-x="1396" d="M84 682q0 154 55.5 287t151.5 224.5t228 143.5t282 52q357 0 549 -308l-205 -104q-51 88 -144 143.5t-200 55.5q-203 0 -337 -139.5t-134 -354.5t134 -354.5t337 -139.5q108 0 200.5 55t143.5 144l205 -104q-195 -308 -549 -308q-150 0 -282 52t-228 143.5t-151.5 224.5 t-55.5 287z" />
<glyph unicode="&#x422;" horiz-adv-x="1181" d="M57 1155v211h1067v-211h-413v-1155h-240v1155h-414z" />
<glyph unicode="&#x423;" horiz-adv-x="1304" d="M2 1366h272l377 -797l377 797h272l-569 -1110q-34 -67 -69.5 -114t-85 -87t-116 -60t-151.5 -20q-87 0 -166 29t-114 66l86 196q89 -78 178 -78q80 0 125.5 37.5t97.5 136.5z" />
<glyph unicode="&#x424;" horiz-adv-x="1708" d="M84 682q0 232 172 376t477 169v139h240v-137q303 -25 476 -170.5t173 -376.5q0 -234 -172.5 -378t-476.5 -169v-135h-240v135q-305 25 -477 169t-172 378zM330 682q0 -136 104.5 -223t298.5 -109v664q-194 -22 -298.5 -109t-104.5 -223zM973 350q194 20 298.5 107.5 t104.5 224.5q0 136 -104.5 223t-298.5 109v-664z" />
<glyph unicode="&#x425;" horiz-adv-x="1353" d="M6 0l512 700l-481 666h287l352 -502l350 502h289l-479 -664l510 -702h-287l-383 535l-383 -535h-287z" />
<glyph unicode="&#x426;" horiz-adv-x="1499" d="M145 0v1366h240v-1155h711v1155h239v-1155h127v-463h-239v252h-1078z" />
<glyph unicode="&#x427;" horiz-adv-x="1292" d="M106 1004v362h240v-362q0 -145 70 -214t207 -69q156 0 284 51v594h240v-1366h-240v561q-141 -51 -309 -51q-245 0 -368.5 132t-123.5 362z" />
<glyph unicode="&#x428;" horiz-adv-x="1951" d="M145 0v1366h240v-1155h471v1155h240v-1155h471v1155h239v-1366h-1661z" />
<glyph unicode="&#x429;" horiz-adv-x="1970" d="M145 0v1366h240v-1155h471v1155h240v-1155h471v1155h239v-1155h127v-463h-239v252h-1549z" />
<glyph unicode="&#x42a;" horiz-adv-x="1570" d="M57 1155v211h654v-510h360q206 0 326.5 -123.5t120.5 -304.5t-120 -304.5t-327 -123.5h-600v1155h-414zM711 211h327q102 0 168 60t66 157t-66 157t-168 60h-327v-434z" />
<glyph unicode="&#x42b;" horiz-adv-x="1703" d="M145 0v1366h240v-510h360q206 0 326.5 -123.5t120.5 -304.5t-120 -304.5t-327 -123.5h-600zM385 211h328q102 0 167.5 60t65.5 157t-65.5 157t-167.5 60h-328v-434zM1319 0v1366h240v-1366h-240z" />
<glyph unicode="&#x42c;" horiz-adv-x="1245" d="M145 0v1366h240v-510h360q206 0 326.5 -123.5t120.5 -304.5t-120 -304.5t-327 -123.5h-600zM385 211h328q102 0 167.5 60t65.5 157t-65.5 157t-167.5 60h-328v-434z" />
<glyph unicode="&#x42d;" horiz-adv-x="1396" d="M47 283l205 104q51 -89 143.5 -144t200.5 -55q179 0 307 111.5t156 290.5h-729v211h725q-35 168 -161 271.5t-298 103.5q-107 0 -200 -55.5t-144 -143.5l-205 104q192 308 549 308q150 0 282 -52t228 -143.5t151.5 -224.5t55.5 -287t-55.5 -287t-151.5 -224.5 t-228 -143.5t-282 -52q-354 0 -549 308z" />
<glyph unicode="&#x42e;" horiz-adv-x="2078" d="M145 0v1366h240v-559h219q40 259 228.5 420.5t461.5 161.5q151 0 281.5 -53.5t222 -147t143.5 -224.5t52 -282t-52 -282t-143.5 -224.5t-222 -147t-281.5 -53.5q-188 0 -339.5 79t-243.5 220t-111 322h-215v-596h-240zM842 682q0 -214 124 -354t328 -140q203 0 328 140 t125 354q0 215 -125 354.5t-328 139.5q-204 0 -328 -139t-124 -355z" />
<glyph unicode="&#x42f;" horiz-adv-x="1286" d="M84 0l334 537q-64 10 -120.5 40t-103 78.5t-73.5 121.5t-27 161q0 190 123 309t324 119h600v-1366h-240v510h-237l-304 -510h-276zM340 938q0 -97 65.5 -157t167.5 -60h328v434h-328q-102 0 -167.5 -60t-65.5 -157z" />
<glyph unicode="&#x430;" horiz-adv-x="1097" d="M80 303q0 82 30.5 145.5t81 101t110 56.5t122.5 19q210 0 319 -127v147q0 85 -63.5 134.5t-167.5 49.5q-166 0 -293 -124l-88 149q169 160 416 160q86 0 157.5 -19.5t129.5 -60t91 -112t33 -167.5v-655h-215v106q-56 -63 -138.5 -97t-180.5 -34q-62 0 -122 21 t-110.5 60.5t-81 103.5t-30.5 143zM297 299q0 -79 59.5 -127.5t151.5 -48.5q73 0 136 26.5t99 75.5v150q-36 49 -99 75.5t-136 26.5q-92 0 -151.5 -48.5t-59.5 -129.5z" />
<glyph unicode="&#x431;" horiz-adv-x="1181" d="M80 541q0 355 122 528.5t376 204.5q154 23 212 43t58 49h211q0 -216 -422 -262q-167 -19 -255.5 -91t-111.5 -173q60 82 155 128t202 46q136 0 244.5 -72t165.5 -189.5t57 -254.5q0 -105 -34.5 -199.5t-98 -166.5t-161 -114.5t-214.5 -42.5q-156 0 -272 74.5t-175 202 t-59 289.5zM301 500q0 -141 76.5 -237.5t208.5 -96.5q133 0 209.5 96.5t76.5 237.5q0 134 -77 228.5t-209 94.5q-131 0 -208 -94.5t-77 -228.5z" />
<glyph unicode="&#x432;" horiz-adv-x="1171" d="M139 0v989h592q137 0 215 -72t78 -182q0 -85 -47 -144t-119 -81q80 -19 133 -87t53 -155q0 -119 -79 -193.5t-220 -74.5h-606zM354 188h346q57 0 90 29.5t33 81.5q0 47 -33 80t-90 33h-346v-224zM354 600h340q51 0 81 28t30 70q0 46 -29.5 74.5t-81.5 28.5h-340v-201z " />
<glyph unicode="&#x433;" horiz-adv-x="925" d="M139 0v989h750v-188h-535v-801h-215z" />
<glyph unicode="&#x434;" horiz-adv-x="1169" d="M37 178q46 11 73.5 37t51 96t39.5 197l59 481h764v-801h109v-440h-215v252h-666v-252h-215v430zM285 188h524v613h-358l-35 -318q-20 -199 -131 -295z" />
<glyph unicode="&#x435;" horiz-adv-x="1140" d="M78 496q0 142 63.5 260.5t179.5 188t259 69.5q220 0 353.5 -151.5t133.5 -387.5v-51h-764q13 -117 96.5 -194.5t218.5 -77.5q75 0 152.5 28.5t128.5 79.5l98 -141q-73 -70 -177 -107t-224 -37q-225 0 -371.5 144.5t-146.5 376.5zM301 575h557q-2 46 -18.5 90.5 t-48.5 84.5t-86.5 64t-124.5 24q-66 0 -119.5 -23.5t-86 -63t-51 -84t-22.5 -92.5z" />
<glyph unicode="&#x436;" horiz-adv-x="1497" d="M12 0l420 541l-412 448h267l354 -387v387h215v-387l354 387h267l-412 -448l420 -541h-271l-303 408l-55 -58v-350h-215v350l-55 58l-303 -408h-271z" />
<glyph unicode="&#x437;" horiz-adv-x="1040" d="M41 135l100 137q135 -120 355 -120q113 0 177 36t64 97q0 129 -260 129h-211v172h211q113 0 177.5 33t64.5 96q0 54 -67.5 88.5t-170.5 34.5q-198 0 -317 -119l-107 131q159 162 414 162q218 1 344.5 -71t126.5 -198q0 -64 -40 -116.5t-98 -82t-124 -38.5q47 -3 95 -19 t91 -44t70 -73.5t27 -101.5q0 -130 -126 -211.5t-341 -81.5q-292 0 -455 160z" />
<glyph unicode="&#x438;" d="M139 0v989h215v-665l455 665h215v-989h-215v684l-463 -684h-207z" />
<glyph unicode="&#x439;" d="M139 0v989h215v-665l455 665h215v-989h-215v684l-463 -684h-207zM221 1274l98 82q97 -135 263 -135q81 0 148 35.5t112 99.5l98 -82q-62 -84 -155.5 -132t-202.5 -48q-108 0 -202.5 48t-158.5 132z" />
<glyph unicode="&#x43a;" horiz-adv-x="1077" d="M139 0v989h215v-477l437 477h266l-412 -448l420 -541h-270l-303 408l-138 -142v-266h-215z" />
<glyph unicode="&#x43b;" d="M37 -25v177q64 0 101.5 81.5t62.5 274.5l59 481h764v-989h-215v801h-358l-35 -318q-29 -265 -121.5 -386.5t-257.5 -121.5z" />
<glyph unicode="&#x43c;" horiz-adv-x="1386" d="M139 0v989h281l274 -639l271 639h282v-989h-215v688l-295 -688h-86l-297 688v-688h-215z" />
<glyph unicode="&#x43d;" d="M139 0v989h215v-389h455v389h215v-989h-215v412h-455v-412h-215z" />
<glyph unicode="&#x43e;" horiz-adv-x="1173" d="M78 496q0 106 36 200.5t100.5 165t160.5 111.5t211 41q154 0 271.5 -71t178 -187.5t60.5 -259.5q0 -144 -60.5 -261.5t-178 -188.5t-271.5 -71q-115 0 -211 41.5t-160.5 112t-100.5 165.5t-36 202zM301 496q0 -138 77 -234t208 -96q133 0 209.5 95.5t76.5 234.5 q0 137 -76.5 232t-209.5 95q-131 0 -208 -95t-77 -232z" />
<glyph unicode="&#x43f;" d="M139 0v989h885v-989h-215v801h-455v-801h-215z" />
<glyph unicode="&#x440;" horiz-adv-x="1183" d="M139 -377v1366h215v-135q56 75 139.5 117.5t178.5 42.5q196 0 317 -139t121 -379q0 -241 -121.5 -381t-316.5 -140q-94 0 -176 41.5t-142 120.5v-514h-215zM354 299q36 -55 108.5 -94t145.5 -39q126 0 202.5 92t76.5 238q0 144 -76.5 235.5t-202.5 91.5q-74 0 -146 -38.5 t-108 -94.5v-391z" />
<glyph unicode="&#x441;" horiz-adv-x="1017" d="M78 496q0 225 143.5 371.5t368.5 146.5q248 0 379 -176l-142 -131q-82 116 -227 116q-134 0 -216.5 -91t-82.5 -236q0 -146 82.5 -238t216.5 -92q142 0 227 117l142 -131q-132 -177 -379 -177q-225 0 -368.5 147t-143.5 374z" />
<glyph unicode="&#x442;" horiz-adv-x="856" d="M37 801v188h782v-188h-284v-801h-216v801h-282z" />
<glyph unicode="&#x443;" horiz-adv-x="1030" d="M-4 989h229l289 -741l289 741h231l-477 -1167q-49 -120 -133 -170.5t-207 -52.5q-67 0 -121 14l33 192q37 -16 82 -16q53 0 86.5 19t54.5 67l49 113z" />
<glyph unicode="&#x444;" horiz-adv-x="1705" d="M111 494q0 241 102 380.5t266 139.5q162 0 266 -162v514h216v-512q47 75 116.5 117.5t149.5 42.5q164 0 266 -139t102 -379q0 -241 -102 -381t-266 -140q-162 0 -266 162v-514h-216v512q-47 -75 -116.5 -117.5t-149.5 -42.5q-164 0 -266 139.5t-102 379.5zM328 494 q0 -144 60 -236t159 -92q58 0 114 38.5t84 94.5v391q-28 55 -84.5 94t-113.5 39q-99 0 -159 -91.5t-60 -237.5zM961 299q28 -55 84.5 -94t113.5 -39q99 0 159 92t60 238q0 144 -60 235.5t-159 91.5q-58 0 -114 -38.5t-84 -94.5v-391z" />
<glyph unicode="&#x445;" horiz-adv-x="1015" d="M10 0l363 508l-342 481h241l236 -336l233 336h242l-342 -481l365 -508h-242l-256 365l-258 -365h-240z" />
<glyph unicode="&#x446;" horiz-adv-x="1169" d="M139 0v989h215v-801h455v801h215v-801h109v-440h-215v252h-779z" />
<glyph unicode="&#x447;" horiz-adv-x="1126" d="M104 645v344h215v-266q0 -112 56.5 -156.5t179.5 -44.5q135 0 217 37v430h215v-989h-215v385q-106 -53 -285 -53q-204 0 -293.5 78t-89.5 235z" />
<glyph unicode="&#x448;" horiz-adv-x="1619" d="M139 0v989h215v-801h348v801h216v-801h348v801h215v-989h-1342z" />
<glyph unicode="&#x449;" horiz-adv-x="1646" d="M139 0v989h215v-801h348v801h216v-801h348v801h215v-801h129v-440h-215v252h-1256z" />
<glyph unicode="&#x44a;" horiz-adv-x="1286" d="M37 801v188h498v-358h350q157 0 242 -90.5t85 -225.5q0 -134 -87 -224.5t-240 -90.5h-566v801h-282zM535 188h323q63 0 99 35t36 92t-36 92t-99 35h-323v-254z" />
<glyph unicode="&#x44b;" horiz-adv-x="1536" d="M139 0v989h215v-358h351q157 0 242 -90.5t85 -225.5q0 -134 -87 -224.5t-240 -90.5h-566zM354 188h324q63 0 99 35t36 92t-36 92t-99 35h-324v-254zM1182 0v989h215v-989h-215z" />
<glyph unicode="&#x44c;" horiz-adv-x="1105" d="M139 0v989h215v-358h351q157 0 242 -90.5t85 -225.5q0 -134 -87 -224.5t-240 -90.5h-566zM354 188h324q63 0 99 35t36 92t-36 92t-99 35h-324v-254z" />
<glyph unicode="&#x44d;" horiz-adv-x="1017" d="M49 152l133 124q42 -58 103.5 -91t132.5 -33q115 0 191.5 67t99.5 187h-447v186h445q-23 116 -100 181t-189 65q-71 0 -132.5 -33t-103.5 -92l-133 125q131 176 379 176q225 0 368.5 -146.5t143.5 -371.5q0 -227 -143.5 -374t-368.5 -147q-247 0 -379 177z" />
<glyph unicode="&#x44e;" horiz-adv-x="1615" d="M139 0v989h215v-389h174q33 181 167 297.5t333 116.5q154 0 271.5 -71t178 -187.5t60.5 -259.5q0 -144 -60.5 -261.5t-178 -188.5t-271.5 -71q-206 0 -340.5 123t-161.5 314h-172v-412h-215zM743 496q0 -138 77 -234t208 -96q133 0 210 95.5t77 234.5q0 137 -77 232 t-210 95q-131 0 -208 -95t-77 -232z" />
<glyph unicode="&#x44f;" horiz-adv-x="1148" d="M104 0l244 369q-102 23 -166.5 102.5t-64.5 202.5q0 134 87 224.5t240 90.5h566v-989h-215v358h-228l-217 -358h-246zM336 674q0 -57 36 -92t99 -35h324v254h-324q-61 0 -98 -35.5t-37 -91.5z" />
<glyph unicode="&#x451;" horiz-adv-x="1140" d="M78 496q0 142 63.5 260.5t179.5 188t259 69.5q220 0 353.5 -151.5t133.5 -387.5v-51h-764q13 -117 96.5 -194.5t218.5 -77.5q75 0 152.5 28.5t128.5 79.5l98 -141q-73 -70 -177 -107t-224 -37q-225 0 -371.5 144.5t-146.5 376.5zM246 1245q0 50 35 84.5t86 34.5 q49 0 83.5 -34.5t34.5 -84.5q0 -51 -34 -86t-84 -35q-51 0 -86 35t-35 86zM301 575h557q-2 46 -18.5 90.5t-48.5 84.5t-86.5 64t-124.5 24q-66 0 -119.5 -23.5t-86 -63t-51 -84t-22.5 -92.5zM674 1245q0 49 35.5 84t85.5 35t85 -35t35 -84q0 -51 -35 -86t-85 -35t-85.5 35 t-35.5 86z" />
<glyph unicode="&#x452;" horiz-adv-x="1169" d="M18 1087v127h127v152h215v-152h310v-127h-310v-233q56 66 149 113t202 47q159 0 239 -80t80 -234v-757q0 -161 -84 -252.5t-244 -91.5q-82 0 -130 16t-103 55l63 160q62 -55 138 -55q66 0 105.5 42t39.5 126v680q0 109 -51.5 154.5t-149.5 45.5q-77 0 -144.5 -38.5 t-109.5 -94.5v-690h-215v1087h-127z" />
<glyph unicode="&#x453;" horiz-adv-x="925" d="M139 0v989h750v-188h-535v-801h-215zM391 1139l287 295h205l-338 -295h-154z" />
<glyph unicode="&#x454;" horiz-adv-x="1017" d="M78 496q0 225 143.5 371.5t368.5 146.5q248 0 379 -176l-133 -125q-42 59 -103.5 92t-132.5 33q-114 0 -191 -65t-100 -181h447v-186h-449q22 -120 99.5 -187t193.5 -67q71 0 132.5 33t103.5 91l133 -124q-132 -177 -379 -177q-225 0 -368.5 147t-143.5 374z" />
<glyph unicode="&#x455;" horiz-adv-x="966" d="M53 129l99 156q56 -57 149.5 -98.5t185.5 -41.5q94 0 144.5 37t50.5 97q0 39 -33 65t-85.5 40.5t-116.5 27.5t-128 33t-116.5 50t-85.5 85.5t-33 132.5q0 127 104 214t285 87q227 0 385 -140l-90 -151q-46 53 -124.5 86t-168.5 33q-84 0 -134 -34t-50 -87q0 -31 25.5 -53 t67.5 -34t96 -25.5t110 -25t110 -35.5t96 -55.5t67.5 -85.5t25.5 -124q0 -135 -109 -221.5t-303 -86.5q-127 0 -237.5 40t-186.5 114z" />
<glyph unicode="&#x456;" horiz-adv-x="493" d="M113 1243q0 55 39.5 94t93.5 39q56 0 94.5 -39t38.5 -94t-38.5 -94t-94.5 -39q-54 0 -93.5 39t-39.5 94zM139 0v989h215v-989h-215z" />
<glyph unicode="&#x457;" horiz-adv-x="493" d="M-88 1245q0 50 35 84.5t86 34.5q49 0 84 -35t35 -84q0 -51 -34.5 -86t-84.5 -35q-51 0 -86 35t-35 86zM139 0v989h215v-989h-215zM340 1245q0 49 35.5 84t85.5 35t85.5 -35t35.5 -84q0 -51 -35.5 -86t-85.5 -35t-85.5 35t-35.5 86z" />
<glyph unicode="&#x458;" horiz-adv-x="493" d="M-207 -330l64 160q62 -55 137 -55q66 0 105.5 42t39.5 126v1046h215v-1046q0 -161 -83.5 -252.5t-243.5 -91.5q-82 0 -131 16t-103 55zM113 1243q0 55 39.5 94t93.5 39q56 0 94.5 -39t38.5 -94t-38.5 -94t-94.5 -39q-54 0 -93.5 39t-39.5 94z" />
<glyph unicode="&#x459;" horiz-adv-x="1775" d="M37 -25v177q64 0 101.5 81.5t62.5 274.5l59 481h764v-358h350q157 0 242.5 -90.5t85.5 -225.5q0 -134 -87 -224.5t-241 -90.5h-565v801h-358l-35 -318q-29 -265 -121.5 -386.5t-257.5 -121.5zM1024 188h324q63 0 99 35t36 92t-36 92t-99 35h-324v-254z" />
<glyph unicode="&#x45a;" horiz-adv-x="1775" d="M139 0v989h215v-389h455v389h215v-389h367q148 0 229.5 -86t81.5 -215q0 -127 -82.5 -213t-228.5 -86h-582v412h-455v-412h-215zM1024 188h340q56 0 87.5 31t31.5 80q0 51 -31.5 82t-87.5 31h-340v-224z" />
<glyph unicode="&#x45b;" horiz-adv-x="1169" d="M18 1087v127h127v152h215v-152h310v-127h-310v-233q56 66 149 113t202 47q159 0 239 -80t80 -234v-700h-215v623q0 109 -51.5 154.5t-149.5 45.5q-77 0 -144.5 -38.5t-109.5 -94.5v-690h-215v1087h-127z" />
<glyph unicode="&#x45c;" horiz-adv-x="1077" d="M139 0v989h215v-477l437 477h266l-412 -448l420 -541h-270l-303 408l-138 -142v-266h-215zM420 1139l287 295h204l-338 -295h-153z" />
<glyph unicode="&#x45e;" horiz-adv-x="1030" d="M-4 989h229l289 -741l289 741h231l-477 -1167q-49 -120 -133 -170.5t-207 -52.5q-67 0 -121 14l33 192q37 -16 82 -16q53 0 86.5 19t54.5 67l49 113zM156 1274l98 82q97 -135 262 -135q81 0 148 35.5t112 99.5l98 -82q-62 -84 -155.5 -132t-202.5 -48q-107 0 -201.5 48 t-158.5 132z" />
<glyph unicode="&#x45f;" d="M139 0v989h215v-801h455v801h215v-989h-334v-260h-215v260h-336z" />
<glyph unicode="&#x490;" horiz-adv-x="1150" d="M145 0v1366h697v252h239v-463h-696v-1155h-240z" />
<glyph unicode="&#x491;" horiz-adv-x="925" d="M139 0v989h535v260h215v-448h-535v-801h-215z" />
<glyph unicode="&#x2013;" horiz-adv-x="1214" d="M61 403v185h1092v-185h-1092z" />
<glyph unicode="&#x2014;" horiz-adv-x="1705" d="M61 403v185h1584v-185h-1584z" />
<glyph unicode="&#x2018;" horiz-adv-x="499" d="M86 1038q0 103 52.5 194.5t140.5 153.5l96 -77q-51 -30 -94.5 -86t-53.5 -107q12 4 35 4q53 0 88 -36t35 -93t-41 -98t-98 -41q-66 0 -113 50t-47 136z" />
<glyph unicode="&#x2019;" horiz-adv-x="499" d="M106 1245q0 58 41.5 99.5t98.5 41.5q66 0 113 -50t47 -136q0 -103 -53 -195.5t-140 -154.5l-96 80q51 30 94 85.5t53 106.5q-18 -6 -35 -6q-53 0 -88 36t-35 93z" />
<glyph unicode="&#x201a;" horiz-adv-x="501" d="M106 123q0 58 41.5 99.5t98.5 41.5q66 0 113 -50t47 -136q0 -103 -53 -195.5t-140 -154.5l-96 79q50 30 93.5 85.5t53.5 107.5q-18 -6 -35 -6q-53 0 -88 36t-35 93z" />
<glyph unicode="&#x201c;" horiz-adv-x="878" d="M94 1038q0 103 52 194.5t139 153.5l98 -77q-51 -30 -94.5 -86t-52.5 -107q8 4 34 4q52 0 86.5 -36.5t34.5 -92.5q0 -57 -40.5 -98t-98.5 -41q-66 0 -112 50t-46 136zM473 1038q0 103 52 194.5t139 153.5l98 -77q-51 -30 -95 -86t-53 -107q8 4 35 4q52 0 86.5 -36.5 t34.5 -92.5q0 -57 -40.5 -98t-98.5 -41q-66 0 -112 50t-46 136z" />
<glyph unicode="&#x201d;" horiz-adv-x="878" d="M106 1245q0 58 41.5 99.5t98.5 41.5q66 0 113 -50t47 -136q0 -103 -53 -195.5t-140 -154.5l-96 80q51 30 94 85.5t53 106.5q-18 -6 -35 -6q-53 0 -88 36t-35 93zM485 1245q0 58 41.5 99.5t98.5 41.5q66 0 112.5 -50t46.5 -136q0 -103 -52.5 -195.5t-139.5 -154.5l-96 80 q51 30 94 85.5t53 106.5q-18 -6 -35 -6q-53 0 -88 36t-35 93z" />
<glyph unicode="&#x201e;" horiz-adv-x="880" d="M106 123q0 58 41.5 99.5t98.5 41.5q66 0 113 -50t47 -136q0 -103 -53 -195.5t-140 -154.5l-96 79q50 30 93.5 85.5t53.5 107.5q-18 -6 -35 -6q-53 0 -88 36t-35 93zM485 123q0 58 41.5 99.5t98.5 41.5q66 0 112.5 -50t46.5 -136q0 -103 -52.5 -195.5t-139.5 -154.5 l-96 79q50 30 93.5 85.5t53.5 107.5q-18 -6 -35 -6q-53 0 -88 36t-35 93z" />
<glyph unicode="&#x2022;" horiz-adv-x="733" d="M135 496q0 97 68.5 165t165.5 68t165 -68t68 -165q0 -96 -68 -164t-165 -68t-165.5 68.5t-68.5 163.5z" />
<glyph unicode="&#x2026;" horiz-adv-x="1503" d="M106 121q0 59 42 101t100 42t100.5 -42t42.5 -101q0 -57 -42.5 -99t-100.5 -42t-100 42t-42 99zM608 121q0 59 42 101t100 42t100.5 -42t42.5 -101q0 -57 -42.5 -99t-100.5 -42t-100 42t-42 99zM1110 121q0 59 41.5 101t99.5 42q59 0 101.5 -42.5t42.5 -100.5 q0 -57 -43 -99t-101 -42t-99.5 42t-41.5 99z" />
<glyph unicode="&#x2039;" horiz-adv-x="653" d="M61 498l328 362h203l-328 -362l328 -369h-203z" />
<glyph unicode="&#x203a;" horiz-adv-x="653" d="M61 129l328 369l-328 362h203l328 -362l-328 -369h-203z" />
<glyph unicode="&#x20a1;" horiz-adv-x="1411" d="M96 682q0 154 55.5 287t151.5 224.5t228 143.5t282 52h27l61 184h129l-67 -201q78 -15 141 -49l82 250h129l-107 -318q83 -64 154 -174l-205 -104q-22 33 -27 39l-274 -826q95 10 175.5 64t125.5 133l205 -104q-195 -308 -549 -308q-5 0 -15 1t-14 1l-61 -182h-129 l65 195q-79 16 -141 41l-80 -236h-129l99 293q-146 93 -229 247t-83 347zM342 682q0 -225 143 -365l283 857q-187 -15 -306.5 -152.5t-119.5 -339.5zM588 242q66 -35 141 -47l303 913q-64 42 -137 57z" />
<glyph unicode="&#x20a3;" horiz-adv-x="1171" d="M18 248v127h146v991h936v-211h-697v-354h682v-211h-682v-215h359v-127h-359v-248h-239v248h-146z" />
<glyph unicode="&#x20a4;" horiz-adv-x="1097" d="M43 438v117h264q-18 38 -82 123h-182v117h98q-47 79 -47 176q0 119 69 215.5t178.5 148t233.5 51.5q158 0 273 -60.5t176 -178.5l-190 -113q-27 67 -90 111.5t-142 44.5q-104 0 -176 -61.5t-72 -161.5q0 -90 54 -172h374v-117h-290q41 -66 53 -123h237v-117h-235 q-22 -118 -139 -194q50 16 104 16q64 0 147 -37t136 -37q61 0 110 23.5t74 54.5l96 -190q-97 -101 -291 -101q-60 0 -114 14.5t-86.5 32t-77.5 32t-90 14.5q-91 0 -240 -80l-82 168q114 53 179 125t65 155v4h-295z" />
<glyph unicode="&#x20a6;" horiz-adv-x="1513" d="M18 479v127h146v162h-146v127h146v471h246l346 -471h352v471h240v-471h145v-127h-145v-162h145v-127h-145v-479h-232l-350 479h-363v-479h-239v479h-146zM403 606h269l-117 162h-152v-162zM403 895h58l-58 80v-80zM850 768l119 -162h139v162h-258zM1063 479l45 -61v61 h-45z" />
<glyph unicode="&#x20a7;" horiz-adv-x="1353" d="M18 870v136h146v360h600q187 0 303 -101.5t137 -258.5h142v-136h-142q-23 -158 -139 -259t-301 -101h-361v-510h-239v870h-146zM403 721h328q83 0 143 40t80 109h-551v-149zM403 1006h551q-20 69 -80 109t-143 40h-328v-149z" />
<glyph unicode="&#x20a8;" horiz-adv-x="2148" d="M145 0v1366h600q201 0 324 -119t123 -309q0 -88 -27 -161t-73.5 -121.5t-103 -78.5t-120.5 -40l334 -537h-276l-303 510h-238v-510h-240zM385 721h328q102 0 167.5 60t65.5 157t-65.5 157t-167.5 60h-328v-434zM1235 129l98 156q56 -57 150 -98.5t186 -41.5 q94 0 144.5 37t50.5 97q0 39 -33 65t-85.5 40.5t-116.5 27.5t-128 33t-116.5 50t-85.5 85.5t-33 132.5q0 127 104 214t285 87q227 0 385 -140l-90 -151q-46 53 -124.5 86t-168.5 33q-84 0 -134 -34t-50 -87q0 -31 25.5 -53t67.5 -34t96 -25.5t110 -25t110 -35.5t96 -55.5 t67.5 -85.5t25.5 -124q0 -135 -109 -221.5t-303 -86.5q-127 0 -237.5 40t-186.5 114z" />
<glyph unicode="&#x20a9;" horiz-adv-x="1849" d="M12 1366h269l118 -471h303l127 471h191l127 -471h301l119 471h268l-135 -471h117v-127h-154l-45 -160h199v-127h-234l-137 -481h-256l-127 481h-279l-125 -481h-256l-139 481h-231v127h196l-47 160h-149v127h114zM430 768l41 -160h154l43 160h-238zM504 481l43 -168 l45 168h-88zM819 608h209l-41 160h-127zM893 895h59l-28 113zM1180 768l43 -160h153l39 160h-235zM1257 481l46 -168l40 168h-86z" />
<glyph unicode="&#x20aa;" horiz-adv-x="1708" d="M139 0v1126h553q248 0 359.5 -112.5t111.5 -329.5v-336h-205v318q0 139 -63 206.5t-203 67.5h-348v-940h-205zM545 0v776h205v-590h348q140 0 203 67.5t63 205.5v667h205v-684q0 -219 -110.5 -330.5t-360.5 -111.5h-553z" />
<glyph unicode="&#x20ab;" horiz-adv-x="1198" d="M78 494q0 236 122.5 378t317.5 142q92 0 175 -42t143 -120v235h-308v127h308v152h215v-152h129v-127h-129v-1087h-215v135q-58 -75 -141 -117.5t-177 -42.5q-195 0 -317.5 139.5t-122.5 379.5zM250 -199h743v-127h-743v127zM301 494q0 -144 76.5 -236t202.5 -92 q75 0 147 37.5t109 93.5v393q-38 57 -109.5 95t-146.5 38q-126 0 -202.5 -91.5t-76.5 -237.5z" />
<glyph unicode="&#x20ac;" horiz-adv-x="1439" d="M51 471v137h80q-2 23 -2 74q0 24 4 78h-82v137h107q66 224 253 358t435 134q357 0 549 -308l-205 -104q-51 88 -144 143.5t-200 55.5q-146 0 -259.5 -75t-168.5 -204h553v-137h-592q-4 -50 -4 -78q0 -51 4 -74h592v-137h-555q55 -131 168.5 -207t261.5 -76 q108 0 200.5 55t143.5 144l205 -104q-195 -308 -549 -308q-249 0 -436.5 134.5t-251.5 361.5h-107z" />
<glyph unicode="&#x2122;" horiz-adv-x="929" d="M35 1313v53h311v-53h-127v-398h-57v398h-127zM420 915v451h88l131 -328l131 328h88v-451h-57v373l-154 -373h-16l-154 373v-373h-57z" />
<glyph unicode="&#xe000;" horiz-adv-x="993" d="M0 0v993h993v-993h-993z" />
<hkern g1="afii10092,afii10094,afii10106,afii10107" 	g2="question" 	k="92" />
<hkern g1="afii10092,afii10094,afii10106,afii10107" 	g2="quotedbl,quotesingle,registered,quoteleft,quoteright,quotedblleft,quotedblright,trademark" 	k="164" />
<hkern g1="afii10092,afii10094,afii10106,afii10107" 	g2="afii10084,afii10092" 	k="92" />
<hkern g1="afii10092,afii10094,afii10106,afii10107" 	g2="C,G,O,Q,afii10053,afii10032,afii10035,afii10038" 	k="61" />
<hkern g1="afii10092,afii10094,afii10106,afii10107" 	g2="asterisk" 	k="123" />
<hkern g1="afii10092,afii10094,afii10106,afii10107" 	g2="U" 	k="31" />
<hkern g1="afii10092,afii10094,afii10106,afii10107" 	g2="T,afii10051,afii10060,afii10036,afii10041,afii10044" 	k="205" />
<hkern g1="afii10092,afii10094,afii10106,afii10107" 	g2="W" 	k="102" />
<hkern g1="afii10092,afii10094,afii10106,afii10107" 	g2="V" 	k="102" />
<hkern g1="afii10092,afii10094,afii10106,afii10107" 	g2="Y" 	k="154" />
<hkern g1="afii10092,afii10094,afii10106,afii10107" 	g2="bullet" 	k="20" />
<hkern g1="B,afii10018,afii10019,afii10025" 	g2="quotedbl,quotesingle,registered,quoteleft,quoteright,quotedblleft,quotedblright,trademark" 	k="20" />
<hkern g1="B,afii10018,afii10019,afii10025" 	g2="T,afii10051,afii10060,afii10036,afii10041,afii10044" 	k="31" />
<hkern g1="B,afii10018,afii10019,afii10025" 	g2="W" 	k="20" />
<hkern g1="B,afii10018,afii10019,afii10025" 	g2="V" 	k="31" />
<hkern g1="B,afii10018,afii10019,afii10025" 	g2="Y" 	k="61" />
<hkern g1="B,afii10018,afii10019,afii10025" 	g2="afii10069,afii10077,afii10106" 	k="20" />
<hkern g1="afii10067,afii10073" 	g2="question" 	k="92" />
<hkern g1="afii10067,afii10073" 	g2="T,afii10051,afii10060,afii10036,afii10041,afii10044" 	k="82" />
<hkern g1="afii10067,afii10073" 	g2="V" 	k="41" />
<hkern g1="afii10067,afii10073" 	g2="Y" 	k="82" />
<hkern g1="C,afii10053,afii10035" 	g2="question" 	k="10" />
<hkern g1="C,afii10053,afii10035" 	g2="W" 	k="10" />
<hkern g1="C,afii10053,afii10035" 	g2="V" 	k="6" />
<hkern g1="C,afii10053,afii10035" 	g2="Y" 	k="41" />
<hkern g1="C,afii10053,afii10035" 	g2="afii10069,afii10077,afii10106" 	k="10" />
<hkern g1="C,afii10053,afii10035" 	g2="A,afii10058,afii10017,afii10021,afii10029" 	k="10" />
<hkern g1="D,O,Q,afii10032,afii10038,afii10047,afii10048" 	g2="question" 	k="41" />
<hkern g1="D,O,Q,afii10032,afii10038,afii10047,afii10048" 	g2="quotedbl,quotesingle,registered,quoteleft,quoteright,quotedblleft,quotedblright,trademark" 	k="20" />
<hkern g1="D,O,Q,afii10032,afii10038,afii10047,afii10048" 	g2="J,afii10057" 	k="41" />
<hkern g1="D,O,Q,afii10032,afii10038,afii10047,afii10048" 	g2="T,afii10051,afii10060,afii10036,afii10041,afii10044" 	k="51" />
<hkern g1="D,O,Q,afii10032,afii10038,afii10047,afii10048" 	g2="W" 	k="41" />
<hkern g1="D,O,Q,afii10032,afii10038,afii10047,afii10048" 	g2="V" 	k="41" />
<hkern g1="D,O,Q,afii10032,afii10038,afii10047,afii10048" 	g2="Y" 	k="82" />
<hkern g1="D,O,Q,afii10032,afii10038,afii10047,afii10048" 	g2="afii10069,afii10077,afii10106" 	k="61" />
<hkern g1="D,O,Q,afii10032,afii10038,afii10047,afii10048" 	g2="A,afii10058,afii10017,afii10021,afii10029" 	k="72" />
<hkern g1="D,O,Q,afii10032,afii10038,afii10047,afii10048" 	g2="Z" 	k="31" />
<hkern g1="D,O,Q,afii10032,afii10038,afii10047,afii10048" 	g2="comma,period,quotesinglbase,quotedblbase,ellipsis" 	k="51" />
<hkern g1="D,O,Q,afii10032,afii10038,afii10047,afii10048" 	g2="X,afii10062,afii10024,afii10037,afii10039" 	k="61" />
<hkern g1="F" 	g2="J,afii10057" 	k="133" />
<hkern g1="F" 	g2="afii10069,afii10077,afii10106" 	k="92" />
<hkern g1="F" 	g2="A,afii10058,afii10017,afii10021,afii10029" 	k="82" />
<hkern g1="F" 	g2="comma,period,quotesinglbase,quotedblbase,ellipsis" 	k="102" />
<hkern g1="F" 	g2="ampersand" 	k="20" />
<hkern g1="G" 	g2="question" 	k="20" />
<hkern g1="G" 	g2="T,afii10051,afii10060,afii10036,afii10041,afii10044" 	k="10" />
<hkern g1="G" 	g2="W" 	k="10" />
<hkern g1="G" 	g2="V" 	k="20" />
<hkern g1="G" 	g2="Y" 	k="31" />
<hkern g1="G" 	g2="A,afii10058,afii10017,afii10021,afii10029" 	k="10" />
<hkern g1="G" 	g2="X,afii10062,afii10024,afii10037,afii10039" 	k="10" />
<hkern g1="K,afii10061,afii10024,afii10028" 	g2="afii10084,afii10092" 	k="113" />
<hkern g1="K,afii10061,afii10024,afii10028" 	g2="C,G,O,Q,afii10053,afii10032,afii10035,afii10038" 	k="102" />
<hkern g1="K,afii10061,afii10024,afii10028" 	g2="Y" 	k="31" />
<hkern g1="K,afii10061,afii10024,afii10028" 	g2="f" 	k="61" />
<hkern g1="K,afii10061,afii10024,afii10028" 	g2="u" 	k="41" />
<hkern g1="K,afii10061,afii10024,afii10028" 	g2="t" 	k="92" />
<hkern g1="K,afii10061,afii10024,afii10028" 	g2="w,afii10089" 	k="82" />
<hkern g1="K,afii10061,afii10024,afii10028" 	g2="v" 	k="123" />
<hkern g1="K,afii10061,afii10024,afii10028" 	g2="y,afii10085,afii10110" 	k="123" />
<hkern g1="K,afii10061,afii10024,afii10028" 	g2="hyphen,endash,emdash" 	k="102" />
<hkern g1="K,afii10061,afii10024,afii10028" 	g2="a,afii10065" 	k="31" />
<hkern g1="K,afii10061,afii10024,afii10028" 	g2="c,d,e,g,o,q,cent,afii10066,afii10070,afii10080,afii10083,afii10086,afii10071,afii10101" 	k="61" />
<hkern g1="K,afii10061,afii10024,afii10028" 	g2="x,afii10072,afii10087" 	k="61" />
<hkern g1="L" 	g2="question" 	k="225" />
<hkern g1="L" 	g2="quotedbl,quotesingle,registered,quoteleft,quoteright,quotedblleft,quotedblright,trademark" 	k="266" />
<hkern g1="L" 	g2="afii10084,afii10092" 	k="154" />
<hkern g1="L" 	g2="C,G,O,Q,afii10053,afii10032,afii10035,afii10038" 	k="61" />
<hkern g1="L" 	g2="asterisk" 	k="348" />
<hkern g1="L" 	g2="U" 	k="51" />
<hkern g1="L" 	g2="T,afii10051,afii10060,afii10036,afii10041,afii10044" 	k="205" />
<hkern g1="L" 	g2="W" 	k="143" />
<hkern g1="L" 	g2="V" 	k="184" />
<hkern g1="L" 	g2="Y" 	k="256" />
<hkern g1="L" 	g2="u" 	k="20" />
<hkern g1="L" 	g2="t" 	k="72" />
<hkern g1="L" 	g2="w,afii10089" 	k="72" />
<hkern g1="L" 	g2="v" 	k="113" />
<hkern g1="L" 	g2="y,afii10085,afii10110" 	k="113" />
<hkern g1="L" 	g2="ampersand" 	k="10" />
<hkern g1="L" 	g2="a,afii10065" 	k="20" />
<hkern g1="L" 	g2="c,d,e,g,o,q,cent,afii10066,afii10070,afii10080,afii10083,afii10086,afii10071,afii10101" 	k="31" />
<hkern g1="P,afii10034" 	g2="J,afii10057" 	k="236" />
<hkern g1="P,afii10034" 	g2="Y" 	k="10" />
<hkern g1="P,afii10034" 	g2="afii10069,afii10077,afii10106" 	k="164" />
<hkern g1="P,afii10034" 	g2="A,afii10058,afii10017,afii10021,afii10029" 	k="154" />
<hkern g1="P,afii10034" 	g2="comma,period,quotesinglbase,quotedblbase,ellipsis" 	k="184" />
<hkern g1="P,afii10034" 	g2="X,afii10062,afii10024,afii10037,afii10039" 	k="31" />
<hkern g1="P,afii10034" 	g2="ampersand" 	k="61" />
<hkern g1="P,afii10034" 	g2="hyphen,endash,emdash" 	k="61" />
<hkern g1="P,afii10034" 	g2="a,afii10065" 	k="41" />
<hkern g1="P,afii10034" 	g2="c,d,e,g,o,q,cent,afii10066,afii10070,afii10080,afii10083,afii10086,afii10071,afii10101" 	k="31" />
<hkern g1="R" 	g2="quotedbl,quotesingle,registered,quoteleft,quoteright,quotedblleft,quotedblright,trademark" 	k="10" />
<hkern g1="R" 	g2="T,afii10051,afii10060,afii10036,afii10041,afii10044" 	k="20" />
<hkern g1="R" 	g2="V" 	k="20" />
<hkern g1="R" 	g2="Y" 	k="35" />
<hkern g1="R" 	g2="ampersand" 	k="10" />
<hkern g1="R" 	g2="a,afii10065" 	k="41" />
<hkern g1="R" 	g2="c,d,e,g,o,q,cent,afii10066,afii10070,afii10080,afii10083,afii10086,afii10071,afii10101" 	k="61" />
<hkern g1="R" 	g2="s,afii10073,afii10095,afii10102" 	k="20" />
<hkern g1="S,afii10054" 	g2="afii10084,afii10092" 	k="20" />
<hkern g1="S,afii10054" 	g2="T,afii10051,afii10060,afii10036,afii10041,afii10044" 	k="20" />
<hkern g1="S,afii10054" 	g2="Y" 	k="20" />
<hkern g1="S,afii10054" 	g2="t" 	k="31" />
<hkern g1="S,afii10054" 	g2="w,afii10089" 	k="10" />
<hkern g1="S,afii10054" 	g2="v" 	k="20" />
<hkern g1="S,afii10054" 	g2="y,afii10085,afii10110" 	k="20" />
<hkern g1="S,afii10054" 	g2="A,afii10058,afii10017,afii10021,afii10029" 	k="20" />
<hkern g1="S,afii10054" 	g2="x,afii10072,afii10087" 	k="31" />
<hkern g1="T,afii10052,afii10020,afii10036,afii10050" 	g2="afii10084,afii10092" 	k="41" />
<hkern g1="T,afii10052,afii10020,afii10036,afii10050" 	g2="C,G,O,Q,afii10053,afii10032,afii10035,afii10038" 	k="51" />
<hkern g1="T,afii10052,afii10020,afii10036,afii10050" 	g2="J,afii10057" 	k="174" />
<hkern g1="T,afii10052,afii10020,afii10036,afii10050" 	g2="S,afii10054,afii10025" 	k="10" />
<hkern g1="T,afii10052,afii10020,afii10036,afii10050" 	g2="f" 	k="51" />
<hkern g1="T,afii10052,afii10020,afii10036,afii10050" 	g2="u" 	k="154" />
<hkern g1="T,afii10052,afii10020,afii10036,afii10050" 	g2="w,afii10089" 	k="82" />
<hkern g1="T,afii10052,afii10020,afii10036,afii10050" 	g2="v" 	k="82" />
<hkern g1="T,afii10052,afii10020,afii10036,afii10050" 	g2="y,afii10085,afii10110" 	k="82" />
<hkern g1="T,afii10052,afii10020,afii10036,afii10050" 	g2="afii10069,afii10077,afii10106" 	k="205" />
<hkern g1="T,afii10052,afii10020,afii10036,afii10050" 	g2="A,afii10058,afii10017,afii10021,afii10029" 	k="133" />
<hkern g1="T,afii10052,afii10020,afii10036,afii10050" 	g2="comma,period,quotesinglbase,quotedblbase,ellipsis" 	k="195" />
<hkern g1="T,afii10052,afii10020,afii10036,afii10050" 	g2="ampersand" 	k="113" />
<hkern g1="T,afii10052,afii10020,afii10036,afii10050" 	g2="hyphen,endash,emdash" 	k="123" />
<hkern g1="T,afii10052,afii10020,afii10036,afii10050" 	g2="a,afii10065" 	k="174" />
<hkern g1="T,afii10052,afii10020,afii10036,afii10050" 	g2="c,d,e,g,o,q,cent,afii10066,afii10070,afii10080,afii10083,afii10086,afii10071,afii10101" 	k="215" />
<hkern g1="T,afii10052,afii10020,afii10036,afii10050" 	g2="x,afii10072,afii10087" 	k="102" />
<hkern g1="T,afii10052,afii10020,afii10036,afii10050" 	g2="s,afii10073,afii10095,afii10102" 	k="174" />
<hkern g1="T,afii10052,afii10020,afii10036,afii10050" 	g2="colon,semicolon" 	k="102" />
<hkern g1="T,afii10052,afii10020,afii10036,afii10050" 	g2="m,n,p,r,z,afii10067,afii10074,afii10076,afii10078,afii10079,afii10081,afii10082,afii10088,afii10090,afii10091,afii10093,afii10094,afii10096,afii10097,afii10100,afii10107,afii10193,afii10098" 	k="154" />
<hkern g1="afii10068,afii10084,afii10100,afii10098" 	g2="T,afii10051,afii10060,afii10036,afii10041,afii10044" 	k="41" />
<hkern g1="afii10068,afii10084,afii10100,afii10098" 	g2="V" 	k="10" />
<hkern g1="afii10068,afii10084,afii10100,afii10098" 	g2="afii10069,afii10077,afii10106" 	k="92" />
<hkern g1="afii10068,afii10084,afii10100,afii10098" 	g2="A,afii10058,afii10017,afii10021,afii10029" 	k="72" />
<hkern g1="afii10068,afii10084,afii10100,afii10098" 	g2="comma,period,quotesinglbase,quotedblbase,ellipsis" 	k="123" />
<hkern g1="afii10068,afii10084,afii10100,afii10098" 	g2="ampersand" 	k="82" />
<hkern g1="J,U,afii10057" 	g2="J,afii10057" 	k="41" />
<hkern g1="J,U,afii10057" 	g2="afii10069,afii10077,afii10106" 	k="31" />
<hkern g1="J,U,afii10057" 	g2="A,afii10058,afii10017,afii10021,afii10029" 	k="61" />
<hkern g1="J,U,afii10057" 	g2="comma,period,quotesinglbase,quotedblbase,ellipsis" 	k="61" />
<hkern g1="V,afii10062,afii10037" 	g2="afii10084,afii10092" 	k="10" />
<hkern g1="V,afii10062,afii10037" 	g2="C,G,O,Q,afii10053,afii10032,afii10035,afii10038" 	k="41" />
<hkern g1="V,afii10062,afii10037" 	g2="J,afii10057" 	k="195" />
<hkern g1="V,afii10062,afii10037" 	g2="f" 	k="51" />
<hkern g1="V,afii10062,afii10037" 	g2="u" 	k="102" />
<hkern g1="V,afii10062,afii10037" 	g2="t" 	k="31" />
<hkern g1="V,afii10062,afii10037" 	g2="w,afii10089" 	k="20" />
<hkern g1="V,afii10062,afii10037" 	g2="v" 	k="31" />
<hkern g1="V,afii10062,afii10037" 	g2="y,afii10085,afii10110" 	k="20" />
<hkern g1="V,afii10062,afii10037" 	g2="afii10069,afii10077,afii10106" 	k="102" />
<hkern g1="V,afii10062,afii10037" 	g2="A,afii10058,afii10017,afii10021,afii10029" 	k="102" />
<hkern g1="V,afii10062,afii10037" 	g2="comma,period,quotesinglbase,quotedblbase,ellipsis" 	k="184" />
<hkern g1="V,afii10062,afii10037" 	g2="ampersand" 	k="72" />
<hkern g1="V,afii10062,afii10037" 	g2="hyphen,endash,emdash" 	k="113" />
<hkern g1="V,afii10062,afii10037" 	g2="a,afii10065" 	k="133" />
<hkern g1="V,afii10062,afii10037" 	g2="c,d,e,g,o,q,cent,afii10066,afii10070,afii10080,afii10083,afii10086,afii10071,afii10101" 	k="123" />
<hkern g1="V,afii10062,afii10037" 	g2="x,afii10072,afii10087" 	k="51" />
<hkern g1="V,afii10062,afii10037" 	g2="s,afii10073,afii10095,afii10102" 	k="92" />
<hkern g1="V,afii10062,afii10037" 	g2="m,n,p,r,z,afii10067,afii10074,afii10076,afii10078,afii10079,afii10081,afii10082,afii10088,afii10090,afii10091,afii10093,afii10094,afii10096,afii10097,afii10100,afii10107,afii10193,afii10098" 	k="102" />
<hkern g1="W" 	g2="C,G,O,Q,afii10053,afii10032,afii10035,afii10038" 	k="41" />
<hkern g1="W" 	g2="J,afii10057" 	k="102" />
<hkern g1="W" 	g2="f" 	k="31" />
<hkern g1="W" 	g2="u" 	k="61" />
<hkern g1="W" 	g2="t" 	k="31" />
<hkern g1="W" 	g2="v" 	k="10" />
<hkern g1="W" 	g2="y,afii10085,afii10110" 	k="10" />
<hkern g1="W" 	g2="afii10069,afii10077,afii10106" 	k="102" />
<hkern g1="W" 	g2="A,afii10058,afii10017,afii10021,afii10029" 	k="92" />
<hkern g1="W" 	g2="comma,period,quotesinglbase,quotedblbase,ellipsis" 	k="133" />
<hkern g1="W" 	g2="ampersand" 	k="41" />
<hkern g1="W" 	g2="hyphen,endash,emdash" 	k="72" />
<hkern g1="W" 	g2="a,afii10065" 	k="82" />
<hkern g1="W" 	g2="c,d,e,g,o,q,cent,afii10066,afii10070,afii10080,afii10083,afii10086,afii10071,afii10101" 	k="82" />
<hkern g1="W" 	g2="x,afii10072,afii10087" 	k="51" />
<hkern g1="W" 	g2="s,afii10073,afii10095,afii10102" 	k="51" />
<hkern g1="W" 	g2="m,n,p,r,z,afii10067,afii10074,afii10076,afii10078,afii10079,afii10081,afii10082,afii10088,afii10090,afii10091,afii10093,afii10094,afii10096,afii10097,afii10100,afii10107,afii10193,afii10098" 	k="61" />
<hkern g1="Y" 	g2="C,G,O,Q,afii10053,afii10032,afii10035,afii10038" 	k="82" />
<hkern g1="Y" 	g2="J,afii10057" 	k="236" />
<hkern g1="Y" 	g2="S,afii10054,afii10025" 	k="41" />
<hkern g1="Y" 	g2="f" 	k="113" />
<hkern g1="Y" 	g2="u" 	k="184" />
<hkern g1="Y" 	g2="t" 	k="61" />
<hkern g1="Y" 	g2="w,afii10089" 	k="123" />
<hkern g1="Y" 	g2="v" 	k="123" />
<hkern g1="Y" 	g2="y,afii10085,afii10110" 	k="123" />
<hkern g1="Y" 	g2="afii10069,afii10077,afii10106" 	k="154" />
<hkern g1="Y" 	g2="A,afii10058,afii10017,afii10021,afii10029" 	k="133" />
<hkern g1="Y" 	g2="comma,period,quotesinglbase,quotedblbase,ellipsis" 	k="184" />
<hkern g1="Y" 	g2="ampersand" 	k="123" />
<hkern g1="Y" 	g2="hyphen,endash,emdash" 	k="246" />
<hkern g1="Y" 	g2="a,afii10065" 	k="236" />
<hkern g1="Y" 	g2="c,d,e,g,o,q,cent,afii10066,afii10070,afii10080,afii10083,afii10086,afii10071,afii10101" 	k="256" />
<hkern g1="Y" 	g2="x,afii10072,afii10087" 	k="154" />
<hkern g1="Y" 	g2="s,afii10073,afii10095,afii10102" 	k="205" />
<hkern g1="Y" 	g2="colon,semicolon" 	k="133" />
<hkern g1="Y" 	g2="m,n,p,r,z,afii10067,afii10074,afii10076,afii10078,afii10079,afii10081,afii10082,afii10088,afii10090,afii10091,afii10093,afii10094,afii10096,afii10097,afii10100,afii10107,afii10193,afii10098" 	k="184" />
<hkern g1="Z" 	g2="C,G,O,Q,afii10053,afii10032,afii10035,afii10038" 	k="31" />
<hkern g1="a,h,m,n,afii10065" 	g2="question" 	k="82" />
<hkern g1="a,h,m,n,afii10065" 	g2="quotedbl,quotesingle,registered,quoteleft,quoteright,quotedblleft,quotedblright,trademark" 	k="20" />
<hkern g1="a,h,m,n,afii10065" 	g2="T,afii10051,afii10060,afii10036,afii10041,afii10044" 	k="205" />
<hkern g1="a,h,m,n,afii10065" 	g2="W" 	k="92" />
<hkern g1="a,h,m,n,afii10065" 	g2="V" 	k="143" />
<hkern g1="a,h,m,n,afii10065" 	g2="Y" 	k="225" />
<hkern g1="ampersand" 	g2="afii10084,afii10092" 	k="123" />
<hkern g1="ampersand" 	g2="T,afii10051,afii10060,afii10036,afii10041,afii10044" 	k="143" />
<hkern g1="ampersand" 	g2="W" 	k="82" />
<hkern g1="ampersand" 	g2="V" 	k="102" />
<hkern g1="ampersand" 	g2="Y" 	k="174" />
<hkern g1="asterisk" 	g2="J,afii10057" 	k="246" />
<hkern g1="asterisk" 	g2="afii10069,afii10077,afii10106" 	k="123" />
<hkern g1="asterisk" 	g2="A,afii10058,afii10017,afii10021,afii10029" 	k="195" />
<hkern g1="b,o,p,afii10080,afii10082,afii10086,afii10095,afii10096" 	g2="question" 	k="102" />
<hkern g1="b,o,p,afii10080,afii10082,afii10086,afii10095,afii10096" 	g2="quotedbl,quotesingle,registered,quoteleft,quoteright,quotedblleft,quotedblright,trademark" 	k="20" />
<hkern g1="b,o,p,afii10080,afii10082,afii10086,afii10095,afii10096" 	g2="T,afii10051,afii10060,afii10036,afii10041,afii10044" 	k="215" />
<hkern g1="b,o,p,afii10080,afii10082,afii10086,afii10095,afii10096" 	g2="W" 	k="82" />
<hkern g1="b,o,p,afii10080,afii10082,afii10086,afii10095,afii10096" 	g2="V" 	k="123" />
<hkern g1="b,o,p,afii10080,afii10082,afii10086,afii10095,afii10096" 	g2="Y" 	k="246" />
<hkern g1="b,o,p,afii10080,afii10082,afii10086,afii10095,afii10096" 	g2="comma,period,quotesinglbase,quotedblbase,ellipsis" 	k="10" />
<hkern g1="b,o,p,afii10080,afii10082,afii10086,afii10095,afii10096" 	g2="x,afii10072,afii10087" 	k="72" />
<hkern g1="bullet" 	g2="afii10069,afii10077,afii10106" 	k="20" />
<hkern g1="c,cent,afii10083,afii10101" 	g2="question" 	k="51" />
<hkern g1="c,cent,afii10083,afii10101" 	g2="quotedbl,quotesingle,registered,quoteleft,quoteright,quotedblleft,quotedblright,trademark" 	k="10" />
<hkern g1="c,cent,afii10083,afii10101" 	g2="T,afii10051,afii10060,afii10036,afii10041,afii10044" 	k="154" />
<hkern g1="c,cent,afii10083,afii10101" 	g2="W" 	k="51" />
<hkern g1="c,cent,afii10083,afii10101" 	g2="V" 	k="82" />
<hkern g1="c,cent,afii10083,afii10101" 	g2="Y" 	k="133" />
<hkern g1="colon,semicolon" 	g2="T,afii10051,afii10060,afii10036,afii10041,afii10044" 	k="102" />
<hkern g1="colon,semicolon" 	g2="Y" 	k="133" />
<hkern g1="e,afii10070,afii10071" 	g2="question" 	k="82" />
<hkern g1="e,afii10070,afii10071" 	g2="quotedbl,quotesingle,registered,quoteleft,quoteright,quotedblleft,quotedblright,trademark" 	k="10" />
<hkern g1="e,afii10070,afii10071" 	g2="asterisk" 	k="31" />
<hkern g1="e,afii10070,afii10071" 	g2="T,afii10051,afii10060,afii10036,afii10041,afii10044" 	k="195" />
<hkern g1="e,afii10070,afii10071" 	g2="W" 	k="82" />
<hkern g1="e,afii10070,afii10071" 	g2="V" 	k="113" />
<hkern g1="e,afii10070,afii10071" 	g2="Y" 	k="225" />
<hkern g1="e,afii10070,afii10071" 	g2="comma,period,quotesinglbase,quotedblbase,ellipsis" 	k="10" />
<hkern g1="f" 	g2="question" 	k="-113" />
<hkern g1="f" 	g2="quotedbl,quotesingle,registered,quoteleft,quoteright,quotedblleft,quotedblright,trademark" 	k="-133" />
<hkern g1="f" 	g2="asterisk" 	k="-133" />
<hkern g1="f" 	g2="S,afii10054,afii10025" 	k="-51" />
<hkern g1="f" 	g2="U" 	k="-82" />
<hkern g1="f" 	g2="T,afii10051,afii10060,afii10036,afii10041,afii10044" 	k="-82" />
<hkern g1="f" 	g2="W" 	k="-133" />
<hkern g1="f" 	g2="V" 	k="-133" />
<hkern g1="f" 	g2="Y" 	k="-123" />
<hkern g1="f" 	g2="Z" 	k="-82" />
<hkern g1="f" 	g2="comma,period,quotesinglbase,quotedblbase,ellipsis" 	k="92" />
<hkern g1="f" 	g2="X,afii10062,afii10024,afii10037,afii10039" 	k="-82" />
<hkern g1="f" 	g2="ampersand" 	k="10" />
<hkern g1="f" 	g2="exclam,B,D,E,F,H,I,K,L,M,N,P,R" 	k="-82" />
<hkern g1="f" 	g2="parenright,bracketright,braceright" 	k="-143" />
<hkern g1="g,j,q,afii10105" 	g2="question" 	k="51" />
<hkern g1="g,j,q,afii10105" 	g2="T,afii10051,afii10060,afii10036,afii10041,afii10044" 	k="154" />
<hkern g1="g,j,q,afii10105" 	g2="W" 	k="61" />
<hkern g1="g,j,q,afii10105" 	g2="V" 	k="102" />
<hkern g1="g,j,q,afii10105" 	g2="Y" 	k="184" />
<hkern g1="g,j,q,afii10105" 	g2="j,afii10105" 	k="-102" />
<hkern g1="hyphen,endash,emdash" 	g2="W" 	k="72" />
<hkern g1="hyphen,endash,emdash" 	g2="V" 	k="113" />
<hkern g1="hyphen,endash,emdash" 	g2="Y" 	k="236" />
<hkern g1="hyphen,endash,emdash" 	g2="X,afii10062,afii10024,afii10037,afii10039" 	k="92" />
<hkern g1="k,afii10072,afii10076,afii10109" 	g2="T,afii10051,afii10060,afii10036,afii10041,afii10044" 	k="113" />
<hkern g1="k,afii10072,afii10076,afii10109" 	g2="W" 	k="51" />
<hkern g1="k,afii10072,afii10076,afii10109" 	g2="V" 	k="51" />
<hkern g1="k,afii10072,afii10076,afii10109" 	g2="Y" 	k="143" />
<hkern g1="k,afii10072,afii10076,afii10109" 	g2="bullet" 	k="51" />
<hkern g1="k,afii10072,afii10076,afii10109" 	g2="hyphen,endash,emdash" 	k="51" />
<hkern g1="k,afii10072,afii10076,afii10109" 	g2="c,d,e,g,o,q,cent,afii10066,afii10070,afii10080,afii10083,afii10086,afii10071,afii10101" 	k="10" />
<hkern g1="comma,period,quotesinglbase,quotedblbase,ellipsis" 	g2="quotedbl,quotesingle,registered,quoteleft,quoteright,quotedblleft,quotedblright,trademark" 	k="164" />
<hkern g1="comma,period,quotesinglbase,quotedblbase,ellipsis" 	g2="afii10084,afii10092" 	k="123" />
<hkern g1="comma,period,quotesinglbase,quotedblbase,ellipsis" 	g2="U" 	k="61" />
<hkern g1="comma,period,quotesinglbase,quotedblbase,ellipsis" 	g2="T,afii10051,afii10060,afii10036,afii10041,afii10044" 	k="195" />
<hkern g1="comma,period,quotesinglbase,quotedblbase,ellipsis" 	g2="W" 	k="133" />
<hkern g1="comma,period,quotesinglbase,quotedblbase,ellipsis" 	g2="V" 	k="174" />
<hkern g1="comma,period,quotesinglbase,quotedblbase,ellipsis" 	g2="Y" 	k="184" />
<hkern g1="comma,period,quotesinglbase,quotedblbase,ellipsis" 	g2="f" 	k="51" />
<hkern g1="comma,period,quotesinglbase,quotedblbase,ellipsis" 	g2="t" 	k="51" />
<hkern g1="comma,period,quotesinglbase,quotedblbase,ellipsis" 	g2="w,afii10089" 	k="82" />
<hkern g1="comma,period,quotesinglbase,quotedblbase,ellipsis" 	g2="v" 	k="133" />
<hkern g1="comma,period,quotesinglbase,quotedblbase,ellipsis" 	g2="y,afii10085,afii10110" 	k="113" />
<hkern g1="comma,period,quotesinglbase,quotedblbase,ellipsis" 	g2="c,d,e,g,o,q,cent,afii10066,afii10070,afii10080,afii10083,afii10086,afii10071,afii10101" 	k="10" />
<hkern g1="comma,period,quotesinglbase,quotedblbase,ellipsis" 	g2="j,afii10105" 	k="-82" />
<hkern g1="comma,period,quotesinglbase,quotedblbase,ellipsis" 	g2="seven" 	k="143" />
<hkern g1="comma,period,quotesinglbase,quotedblbase,ellipsis" 	g2="one" 	k="184" />
<hkern g1="comma,period,quotesinglbase,quotedblbase,ellipsis" 	g2="zero,six" 	k="51" />
<hkern g1="quotedbl,quotesingle,quoteleft,quoteright,quotedblleft,quotedblright" 	g2="C,G,O,Q,afii10053,afii10032,afii10035,afii10038" 	k="10" />
<hkern g1="quotedbl,quotesingle,quoteleft,quoteright,quotedblleft,quotedblright" 	g2="J,afii10057" 	k="205" />
<hkern g1="quotedbl,quotesingle,quoteleft,quoteright,quotedblleft,quotedblright" 	g2="afii10069,afii10077,afii10106" 	k="164" />
<hkern g1="quotedbl,quotesingle,quoteleft,quoteright,quotedblleft,quotedblright" 	g2="A,afii10058,afii10017,afii10021,afii10029" 	k="205" />
<hkern g1="quotedbl,quotesingle,quoteleft,quoteright,quotedblleft,quotedblright" 	g2="comma,period,quotesinglbase,quotedblbase,ellipsis" 	k="164" />
<hkern g1="quotedbl,quotesingle,quoteleft,quoteright,quotedblleft,quotedblright" 	g2="s,afii10073,afii10095,afii10102" 	k="61" />
<hkern g1="r" 	g2="T,afii10051,afii10060,afii10036,afii10041,afii10044" 	k="82" />
<hkern g1="r" 	g2="W" 	k="20" />
<hkern g1="r" 	g2="V" 	k="51" />
<hkern g1="r" 	g2="Y" 	k="102" />
<hkern g1="r" 	g2="comma,period,quotesinglbase,quotedblbase,ellipsis" 	k="174" />
<hkern g1="r" 	g2="X,afii10062,afii10024,afii10037,afii10039" 	k="31" />
<hkern g1="s,afii10102" 	g2="question" 	k="92" />
<hkern g1="s,afii10102" 	g2="quotedbl,quotesingle,registered,quoteleft,quoteright,quotedblleft,quotedblright,trademark" 	k="41" />
<hkern g1="s,afii10102" 	g2="T,afii10051,afii10060,afii10036,afii10041,afii10044" 	k="164" />
<hkern g1="s,afii10102" 	g2="W" 	k="92" />
<hkern g1="s,afii10102" 	g2="V" 	k="92" />
<hkern g1="s,afii10102" 	g2="Y" 	k="195" />
<hkern g1="s,afii10102" 	g2="X,afii10062,afii10024,afii10037,afii10039" 	k="10" />
<hkern g1="t" 	g2="T,afii10051,afii10060,afii10036,afii10041,afii10044" 	k="82" />
<hkern g1="t" 	g2="W" 	k="31" />
<hkern g1="t" 	g2="V" 	k="61" />
<hkern g1="t" 	g2="Y" 	k="72" />
<hkern g1="u,z,afii10069,afii10074,afii10077,afii10078,afii10079,afii10081,afii10088,afii10089,afii10090,afii10091,afii10093,afii10097,afii10193" 	g2="question" 	k="51" />
<hkern g1="u,z,afii10069,afii10074,afii10077,afii10078,afii10079,afii10081,afii10088,afii10089,afii10090,afii10091,afii10093,afii10097,afii10193" 	g2="T,afii10051,afii10060,afii10036,afii10041,afii10044" 	k="154" />
<hkern g1="u,z,afii10069,afii10074,afii10077,afii10078,afii10079,afii10081,afii10088,afii10089,afii10090,afii10091,afii10093,afii10097,afii10193" 	g2="W" 	k="61" />
<hkern g1="u,z,afii10069,afii10074,afii10077,afii10078,afii10079,afii10081,afii10088,afii10089,afii10090,afii10091,afii10093,afii10097,afii10193" 	g2="V" 	k="102" />
<hkern g1="u,z,afii10069,afii10074,afii10077,afii10078,afii10079,afii10081,afii10088,afii10089,afii10090,afii10091,afii10093,afii10097,afii10193" 	g2="Y" 	k="184" />
<hkern g1="v" 	g2="T,afii10051,afii10060,afii10036,afii10041,afii10044" 	k="82" />
<hkern g1="v" 	g2="W" 	k="10" />
<hkern g1="v" 	g2="V" 	k="31" />
<hkern g1="v" 	g2="Y" 	k="123" />
<hkern g1="v" 	g2="A,afii10058,afii10017,afii10021,afii10029" 	k="41" />
<hkern g1="v" 	g2="comma,period,quotesinglbase,quotedblbase,ellipsis" 	k="133" />
<hkern g1="v" 	g2="X,afii10062,afii10024,afii10037,afii10039" 	k="72" />
<hkern g1="w" 	g2="T,afii10051,afii10060,afii10036,afii10041,afii10044" 	k="82" />
<hkern g1="w" 	g2="V" 	k="20" />
<hkern g1="w" 	g2="Y" 	k="123" />
<hkern g1="w" 	g2="A,afii10058,afii10017,afii10021,afii10029" 	k="31" />
<hkern g1="w" 	g2="comma,period,quotesinglbase,quotedblbase,ellipsis" 	k="82" />
<hkern g1="w" 	g2="X,afii10062,afii10024,afii10037,afii10039" 	k="82" />
<hkern g1="y,afii10085,afii10110" 	g2="question" 	k="10" />
<hkern g1="y,afii10085,afii10110" 	g2="T,afii10051,afii10060,afii10036,afii10041,afii10044" 	k="82" />
<hkern g1="y,afii10085,afii10110" 	g2="W" 	k="10" />
<hkern g1="y,afii10085,afii10110" 	g2="V" 	k="20" />
<hkern g1="y,afii10085,afii10110" 	g2="Y" 	k="123" />
<hkern g1="y,afii10085,afii10110" 	g2="A,afii10058,afii10017,afii10021,afii10029" 	k="41" />
<hkern g1="y,afii10085,afii10110" 	g2="comma,period,quotesinglbase,quotedblbase,ellipsis" 	k="113" />
<hkern g1="y,afii10085,afii10110" 	g2="X,afii10062,afii10024,afii10037,afii10039" 	k="72" />
<hkern g1="X,afii10039" 	g2="C,G,O,Q,afii10053,afii10032,afii10035,afii10038" 	k="61" />
<hkern g1="X,afii10039" 	g2="f" 	k="61" />
<hkern g1="X,afii10039" 	g2="t" 	k="61" />
<hkern g1="X,afii10039" 	g2="w,afii10089" 	k="82" />
<hkern g1="X,afii10039" 	g2="v" 	k="72" />
<hkern g1="X,afii10039" 	g2="y,afii10085,afii10110" 	k="72" />
<hkern g1="X,afii10039" 	g2="hyphen,endash,emdash" 	k="92" />
<hkern g1="zero,nine" 	g2="comma,period,quotesinglbase,quotedblbase,ellipsis" 	k="51" />
<hkern g1="seven" 	g2="comma,period,quotesinglbase,quotedblbase,ellipsis" 	k="195" />
<hkern g1="x,afii10087" 	g2="T,afii10051,afii10060,afii10036,afii10041,afii10044" 	k="102" />
<hkern g1="x,afii10087" 	g2="W" 	k="51" />
<hkern g1="x,afii10087" 	g2="V" 	k="51" />
<hkern g1="x,afii10087" 	g2="Y" 	k="154" />
<hkern g1="x,afii10087" 	g2="c,d,e,g,o,q,cent,afii10066,afii10070,afii10080,afii10083,afii10086,afii10071,afii10101" 	k="72" />
<hkern g1="parenleft,bracketleft,braceleft" 	g2="j,afii10105" 	k="-225" />
</font>
</defs></svg> 